{
  "betResponses": {
    "successfulBets": [
      {
        "betType": {
          "betId": "SINGLE-380597057",
          "betType": "SINGLE",
          "selectionId": 380597057,
          "unitStake": 0.5,
          "totalStake": 0.5,
          "isEachwayBet": false,
          "betTypeName": "Single",
          "numberOfBets": 1,
          "potentialReturn": "0.51"
        },
        "betReferenceId": 738139575
      },
      {
        "betType": {
          "betId": "SINGLE-381461443",
          "betType": "SINGLE",
          "selectionId": 381461443,
          "unitStake": 0.5,
          "totalStake": 0.5,
          "isEachwayBet": false,
          "betTypeName": "Single",
          "numberOfBets": 1,
          "potentialReturn": "0.54"
        },
        "betReferenceId": 738139577
      }
    ],
    "failedBets": [
      {
        "betType": {
          "betId": "SINGLE-380628125",
          "betType": "SINGLE",
          "selectionId": 380628125,
          "unitStake": 75.0,
          "totalStake": 75.0,
          "isEachwayBet": false,
          "betTypeName": "Single",
          "numberOfBets": 1,
          "stakeMultiplier": 1.5,
          "inrunningDelay": "5"
        },
        "error": {
          "errorCode": "BET00011",
          "errorText": "Insufficient funds for placing this bet",
          "localisedErrorMessage": "Sorry, you do not have sufficient funds to place this bet"
        }
      }
    ],
    "selections": [
      {
        "acceptedState": {
          "eventId": 4592230,
          "eventName": "Kelantan v ATM FA",
          "bookId": 100359767,
          "bookName": "Match Prices",
          "selectionId": 380597057,
          "selectionName": "Kelantan",
          "fractionalOdds": "1/50",
          "decimalOdds": 1.02,
          "americanOdds": -5000,
          "displayOdds": "1/50",
          "periodAndTime": "46' 1st Half"
        }
      },
      {
        "acceptedState": {
          "eventId": 4599674,
          "eventName": "Gor Mahia v Al Malakia FC",
          "bookId": 100583514,
          "bookName": "Match Prices",
          "selectionId": 381461443,
          "selectionName": "Gor Mahia",
          "fractionalOdds": "1/12",
          "decimalOdds": 1.083,
          "americanOdds": -1200,
          "displayOdds": "1/12",
          "periodAndTime": "24' 1st Half"
        }
      },
      {
        "acceptedState": {
          "eventId": 4592517,
          "eventName": "Chelyabinsk v Dinamo Kirov",
          "bookId": 100367917,
          "bookName": "Match Prices",
          "selectionId": 380628125,
          "selectionName": "Chelyabinsk",
          "fractionalOdds": "1/2",
          "decimalOdds": 1.5,
          "americanOdds": -200,
          "displayOdds": "1/2",
          "periodAndTime": "7' 1st Half"
        }
      }
    ],
    "numberOfRemainingSelectionsInBetSlip": 3,
    "totalPotentialReturns": "1.05"
  }
}