{
  "stakeInformation": {
    "userCurrency": "EUR",
    "defaultStake": "10",
    "stakeIncrements": [
      "0.5",
      "1",
      "2",
      "5",
      "10",
      "15",
      "20",
      "25",
      "30",
      "40",
      "50",
      "75",
      "100",
      "125",
      "150",
      "200",
      "250",
      "300",
      "400",
      "500",
      "750",
      "1000",
      "2000",
      "3000",
      "4000",
      "5000",
      "6000",
      "7000",
      "8000",
      "9000",
      "10000"
    ]
  },
  "betSelections": [
    {
      "acceptedState": {
        "eventId": 4634481,
        "eventName": "Angusht Nazran v Mashuk-KMV",
        "bookId": 101630125,
        "bookName": "Match Prices",
        "selectionId": 385373164,
        "selectionName": "Angusht Nazran",
        "isSPSelection": false,
        "fractionalOdds": "3/4",
        "decimalOdds": 1.75,
        "americanOdds": -134,
        "displayOdds": "3/4",
        "periodAndTime": "Half Time"
      }
    },
    {
      "acceptedState": {
        "eventId": 4654181,
        "eventName": "Darcis, S v Satral, J",
        "bookId": 102272347,
        "bookName": "Match Winner",
        "selectionId": 387814070,
        "selectionName": "Darcis, S",
        "isSPSelection": false,
        "fractionalOdds": "1/200",
        "decimalOdds": 1.005,
        "americanOdds": -20000,
        "displayOdds": "1/200",
        "periodAndTime": ""
      }
    },
    {
      "acceptedState": {
        "eventId": 4653440,
        "eventName": "Motti, A / Ramos Vinolas, A v Marcan, D  /  Podlipnik-Castillo, H",
        "bookId": 102274983,
        "bookName": "Match Winner",
        "selectionId": 387823379,
        "selectionName": "Motti, A/Ramos Vinolas, A",
        "isSPSelection": false,
        "fractionalOdds": "8/11",
        "decimalOdds": 1.727,
        "americanOdds": -138,
        "displayOdds": "8/11",
        "periodAndTime": ""
      }
    }
  ],
  "betTypes": {
    "betGroups": {
      "singlesBetGroup": {
        "betType": [
          {
            "betId": "SINGLE-385373164",
            "betType": "SINGLE",
            "betTypeName": "Single",
            "selectionId": 385373164,
            "stakeMultiplier": 1.75,
            "numberOfBets": 1,
            "inrunningDelay": "5",
            "areFreeBetsAllowed": false
          },
          {
            "betId": "SINGLE-387814070",
            "betType": "SINGLE",
            "betTypeName": "Single",
            "selectionId": 387814070,
            "stakeMultiplier": 1.005,
            "numberOfBets": 1,
            "inrunningDelay": "2",
            "areFreeBetsAllowed": false
          },
          {
            "betId": "SINGLE-387823379",
            "betType": "SINGLE",
            "betTypeName": "Single",
            "selectionId": 387823379,
            "stakeMultiplier": 1.7272727272727273,
            "numberOfBets": 1,
            "inrunningDelay": "3",
            "areFreeBetsAllowed": false
          }
        ],
        "default": true
      },
      "multiplesBetGroup": {
        "betType": [
          {
            "betId": "SINGLE-385373164",
            "betType": "SINGLE",
            "betTypeName": "Single",
            "selectionId": 385373164,
            "stakeMultiplier": 1.75,
            "numberOfBets": 1,
            "inrunningDelay": "5",
            "areFreeBetsAllowed": false
          },
          {
            "betId": "SINGLE-387814070",
            "betType": "SINGLE",
            "betTypeName": "Single",
            "selectionId": 387814070,
            "stakeMultiplier": 1.005,
            "numberOfBets": 1,
            "inrunningDelay": "2",
            "areFreeBetsAllowed": false
          },
          {
            "betId": "SINGLE-387823379",
            "betType": "SINGLE",
            "betTypeName": "Single",
            "selectionId": 387823379,
            "stakeMultiplier": 1.7272727272727273,
            "numberOfBets": 1,
            "inrunningDelay": "3",
            "areFreeBetsAllowed": false
          },
          {
            "betId": "TREBLE-385373164,387814070,387823379",
            "betType": "TREBLE",
            "betTypeName": "Treble",
            "stakeMultiplier": 3.037840909090909,
            "numberOfBets": 1,
            "inrunningDelay": "3",
            "areFreeBetsAllowed": false
          },
          {
            "betId": "PATENT-385373164,387814070,387823379",
            "betType": "PATENT",
            "betTypeName": "Patent",
            "stakeMultiplier": 14.0375,
            "numberOfBets": 7,
            "inrunningDelay": "3",
            "areFreeBetsAllowed": false
          },
          {
            "betId": "TRIXIE-385373164,387814070,387823379",
            "betType": "TRIXIE",
            "betTypeName": "Trixie",
            "stakeMultiplier": 9.555227272727272,
            "numberOfBets": 4,
            "inrunningDelay": "3",
            "areFreeBetsAllowed": false
          },
          {
            "betId": "DOUBLES-385373164,387814070,387823379",
            "betType": "DOUBLES",
            "betTypeName": "Doubles",
            "stakeMultiplier": 6.517386363636364,
            "numberOfBets": 3,
            "inrunningDelay": "3",
            "areFreeBetsAllowed": false
          }
        ],
        "default": false
      }
    }
  },
  "freeBets": []
}
