{
  "stakeInformation": {
    "userCurrency": "GBP",
    "defaultStake": "10",
    "stakeIncrements": [
      "0.5",
      "1",
      "2",
      "5",
      "10",
      "15",
      "20",
      "25",
      "30",
      "40",
      "50",
      "75",
      "100",
      "125",
      "150",
      "200",
      "250",
      "300",
      "400",
      "500",
      "750",
      "1000",
      "2000",
      "3000",
      "4000",
      "5000",
      "6000",
      "7000",
      "8000",
      "9000",
      "10000"
    ]
  },
  "betSelections": [
    {
      "acceptedState": {
        "eventId": 4589788,
        "eventName": "Daejeon Sportstoto Women v Hwacheon KSPO Women",
        "bookId": 100285862,
        "bookName": "Match Prices",
        "selectionId": 380328871,
        "selectionName": "Daejeon Sportstoto Women",
        "fractionalOdds": "40/1",
        "decimalOdds": 41.0,
        "americanOdds": 4000,
        "displayOdds": "40/1",
        "periodAndTime": "86' 2nd Half"
      }
    },
    {
      "acceptedState": {
        "eventId": 4577649,
        "eventName": "Bulleen Lions v Whittlesea Ranges",
        "bookId": 99912775,
        "bookName": "Match Prices",
        "selectionId": 378930156,
        "selectionName": "Bulleen Lions",
        "fractionalOdds": "3/4",
        "decimalOdds": 1.75,
        "americanOdds": -134,
        "displayOdds": "3/4",
        "periodAndTime": "67' 2nd Half"
      },
      "newState": {
        "eventId": 4577649,
        "eventName": "Bulleen Lions v Whittlesea Ranges",
        "bookId": 99912775,
        "bookName": "Match Prices",
        "selectionId": 378930156,
        "selectionName": "Bulleen Lions",
        "fractionalOdds": "4/5",
        "decimalOdds": 1.8,
        "americanOdds": -125,
        "displayOdds": "4/5",
        "handicap": "",
        "periodAndTime": "67' 2nd Half"
      }
    },
    {
      "acceptedState": {
        "eventId": 4577650,
        "eventName": "Kingston City v Richmond",
        "bookId": 99912907,
        "bookName": "Match Prices",
        "selectionId": 378930701,
        "selectionName": "Kingston City",
        "fractionalOdds": "25/1",
        "decimalOdds": 26.0,
        "americanOdds": 2500,
        "displayOdds": "25/1",
        "periodAndTime": "58' 2nd Half"
      },
      "newState": {
        "eventId": 4577650,
        "eventName": "Kingston City v Richmond",
        "bookId": 99912907,
        "bookName": "Match Prices",
        "selectionId": 378930701,
        "selectionName": "Kingston City",
        "fractionalOdds": "28/1",
        "decimalOdds": 29.0,
        "americanOdds": 2800,
        "displayOdds": "28/1",
        "handicap": "",
        "periodAndTime": "58' 2nd Half"
      }
    },
    {
      "acceptedState": {
        "eventId": 4590030,
        "eventName": "Pribram U21 v Mlada Boleslav U21",
        "bookId": 100287356,
        "bookName": "Match Prices",
        "selectionId": 380334217,
        "selectionName": "Pribram U21",
        "fractionalOdds": "1/9",
        "decimalOdds": 1.111,
        "americanOdds": -900,
        "displayOdds": "1/9",
        "periodAndTime": "45' 1st Half"
      },
      "newState": {
        "eventId": 4590030,
        "eventName": "Pribram U21 v Mlada Boleslav U21",
        "bookId": 100287356,
        "bookName": "Match Prices",
        "selectionId": 380334217,
        "selectionName": "Pribram U21",
        "fractionalOdds": "1/8",
        "decimalOdds": 1.125,
        "americanOdds": -800,
        "displayOdds": "1/8",
        "handicap": "",
        "periodAndTime": "45' 1st Half"
      }
    }
  ],
  "betTypes": {
    "betGroups": {
      "singlesBetGroup": {
        "betType": [
          {
            "betId": "SINGLE-380328871",
            "betType": "SINGLE",
            "betTypeName": "Single",
            "selectionId": 380328871,
            "stakeMultiplier": 41.0,
            "numberOfBets": 1,
            "inrunningDelay": "5"
          },
          {
            "betId": "SINGLE-378930156",
            "betType": "SINGLE",
            "betTypeName": "Single",
            "selectionId": 378930156,
            "stakeMultiplier": 1.8,
            "numberOfBets": 1,
            "errorCode": "BETFT00027",
            "errorText": "Please note there has been a price change",
            "localisedErrorMessage": "Please note there has been a price change",
            "inrunningDelay": "5"
          },
          {
            "betId": "SINGLE-378930701",
            "betType": "SINGLE",
            "betTypeName": "Single",
            "selectionId": 378930701,
            "stakeMultiplier": 29.0,
            "numberOfBets": 1,
            "errorCode": "BETFT00027",
            "errorText": "Please note there has been a price change",
            "localisedErrorMessage": "Please note there has been a price change",
            "inrunningDelay": "5"
          },
          {
            "betId": "SINGLE-380334217",
            "betType": "SINGLE",
            "betTypeName": "Single",
            "selectionId": 380334217,
            "stakeMultiplier": 1.125,
            "numberOfBets": 1,
            "errorCode": "BETFT00027",
            "errorText": "Please note there has been a price change",
            "localisedErrorMessage": "Please note there has been a price change",
            "inrunningDelay": "5"
          }
        ],
        "default": true
      },
      "multiplesBetGroup": {
        "betType": [
          {
            "betId": "SINGLE-380328871",
            "betType": "SINGLE",
            "betTypeName": "Single",
            "selectionId": 380328871,
            "stakeMultiplier": 41.0,
            "numberOfBets": 1,
            "inrunningDelay": "5"
          },
          {
            "betId": "SINGLE-378930156",
            "betType": "SINGLE",
            "betTypeName": "Single",
            "selectionId": 378930156,
            "stakeMultiplier": 1.8,
            "numberOfBets": 1,
            "errorCode": "BETFT00027",
            "errorText": "Please note there has been a price change",
            "localisedErrorMessage": "Please note there hasbeen a price change",
            "inrunningDelay": "5"
          },
          {
            "betId": "SINGLE-378930701",
            "betType": "SINGLE",
            "betTypeName": "Single",
            "selectionId": 378930701,
            "stakeMultiplier": 29.0,
            "numberOfBets": 1,
            "errorCode": "BETFT00027",
            "errorText": "Please note there has been a price change",
            "localisedErrorMessage": "Please note there has been a price change",
            "inrunningDelay": "5"
          },
          {
            "betId": "SINGLE-380334217",
            "betType": "SINGLE",
            "betTypeName": "Single",
            "selectionId": 380334217,
            "stakeMultiplier": 1.125,
            "numberOfBets": 1,
            "errorCode": "BETFT00027",
            "errorText": "Please note there has been a price change",
            "localisedErrorMessage": "Please note there has been a price change",
            "inrunningDelay": "5"
          },
          {
            "betId": "ACCUMULATOR-380328871,378930156,378930701,380334217",
            "betType": "ACCUMULATOR",
            "betTypeName": "Accumulator",
            "stakeMultiplier": 2407.725,
            "numberOfBets": 1,
            "errorCode": "BETFT00027",
            "errorText": "Please note there has been a price change",
            "localisedErrorMessage": "Please note there has been a price change",
            "inrunningDelay": "5"
          },
          {
            "betId": "YANKEE-380328871,378930156,378930701,380334217",
            "betType": "YANKEE",
            "betTypeName": "Yankee",
            "stakeMultiplier": 7423.075000000001,
            "numberOfBets": 11,
            "errorCode": "BETFT00027",
            "errorText": "Please note there has been a price change",
            "localisedErrorMessage": "Please note there has been a price change",
            "inrunningDelay": "5"
          },
          {
            "betId": "DOUBLES-380328871,378930156,378930701,380334217",
            "betType": "DOUBLES",
            "betTypeName": "Doubles",
            "stakeMultiplier": 1395.775,
            "numberOfBets": 6,
            "errorCode": "BETFT00027",
            "errorText": "Please note there has been a price change",
            "localisedErrorMessage": "Please note there has been a price change",
            "inrunningDelay": "5"
          },
          {
            "betId": "TREBLES-380328871,378930156,378930701,380334217",
            "betType": "TREBLES",
            "betTypeName": "Trebles",
            "stakeMultiplier": 3619.575,
            "numberOfBets": 4,
            "errorCode": "BETFT00027",
            "errorText": "Please note there has been a price change",
            "localisedErrorMessage": "Please note there has been a price change",
            "inrunningDelay": "5"
          }
        ],
        "default": false
      }
    }
  }
}
