[
  {
    "id": 102,
    "name": "Football",
    "category": "sport",
    "parentEventClasses": [
      {
        "id": 47889,
        "name": "In Play",
        "displayOrder": "105475",
        "category": "parentEventClass"
      },
      {
        "id": 947058,
        "name": "International",
        "displayOrder": "297961",
        "category": "parentEventClass"
      },
      {
        "id": 981847,
        "name": "Copa America 2015",
        "displayOrder": "298244",
        "category": "parentEventClass"
      },
      {
        "id": 1041156,
        "name": "UEFA U21 Euro 2015",
        "displayOrder": "298282",
        "category": "parentEventClass"
      },
      {
        "id": 765062,
        "name": "UEFA Euro 2016",
        "displayOrder": "299945",
        "category": "parentEventClass"
      },
      {
        "id": 780210,
        "name": "Copa Libertadores",
        "displayOrder": "302476",
        "category": "parentEventClass"
      },
      {
        "id": 84037,
        "name": "Germany, Austria and Switzerland",
        "displayOrder": "305670",
        "category": "parentEventClass"
      },
      {
        "id": 84038,
        "name": "Italy",
        "displayOrder": "397467",
        "category": "parentEventClass"
      },
      {
        "id": 160532,
        "name": "Greece ",
        "displayOrder": "444012",
        "category": "parentEventClass"
      },
      {
        "id": 160634,
        "name": "Russia and Ukraine",
        "displayOrder": "453871",
        "category": "parentEventClass"
      },
      {
        "id": 190180,
        "name": "Brazil",
        "displayOrder": "839908",
        "category": "parentEventClass"
      },
      {
        "id": 84377,
        "name": "Europe",
        "displayOrder": "842875",
        "category": "parentEventClass"
      },
      {
        "id": 84390,
        "name": "The Americas",
        "displayOrder": "933261",
        "category": "parentEventClass"
      },
      {
        "id": 98033,
        "name": "Worldwide",
        "displayOrder": "942803",
        "category": "parentEventClass"
      },
      {
        "id": 735171,
        "name": "Outright",
        "displayOrder": "947804",
        "category": "parentEventClass"
      },
      {
        "id": 733757,
        "name": "FIFA World Cup 2018",
        "displayOrder": "973562",
        "category": "parentEventClass"
      }
    ]
  }
]