{
  "details": {
    "responseTime": 460,
    "totalEvents": 20,
    "events": [
      {
        "id": 1324211,
        "name": "BetLimit",
        "category": "event",
        "eventDateTime": "2011-09-06T13:00:00.000+01:00",
        "eventStartingTime": "2011-09-06T13:00:00.000+01:00",
        "periodAndTime": "",
        "is4InRunning": "1",
        "isInRunningDelay": "1",
        "isVisible": "1",
        "sportId": "230",
        "inRunningData": {
          "addScoreA": "",
          "addScoreB": "",
          "addScoreText": "",
          "competitionName": "Soccer",
          "displayTime": "2013-01-24T13:54:16.000+00:00",
          "periodStartTime": "2013-01-24T13:54:16.000+00:00",
          "publishAnticipatedStartTime": "0",
          "actualStartTime": "2013-01-24T13:54:16.000+00:00",
          "isInRunning": "1",
          "numberOfPeriods": "2",
          "participantA": "",
          "participantB": "",
          "periodLengthInMin": "45",
          "periodNumber": "1",
          "periodText": "1st Half",
          "scoreA": "0",
          "scoreB": "0",
          "scoreHistory": "",
          "scoreText": "Goals",
          "scores": {
            "participantAScoreHistory": [
            ],
            "participantBScoreHistory": [
            ],
            "scoreHistoryFormatted": null,
            "participantATotalSetScore": null,
            "participantBTotalSetScore": null,
            "totalSetScoreFormatted": null,
            "participantACurrentSetScore": null,
            "participantBCurrentSetScore": null,
            "currentSetScoreFormatted": null,
            "participantACurrentGameScore": "0",
            "participantBCurrentGameScore": "0",
            "currentGameScoreFormatted": "0-0",
            "fullScoreFormatted": "0-0"
          }
        },
        "streamingData": [
        ],
        "books": [
          {
            "id": 10017706,
            "name": "Match Prices",
            "category": "book",
            "marketTypeId": "118",
            "marketType": {
              "id": 118,
              "name": "Match Prices",
              "inrunningDelay": "10",
              "webCouponTemplate": "CPNTEAMTIE",
              "webTemplate": "Team Competition",
              "cpWebCouponTemplate": ""
            },
            "market": {
              "id": 8862111,
              "name": "Match Prices",
              "description": null,
              "eachWayPlaceTerm": "",
              "eachWayReduction": "",
              "isEachWay": "0",
              "isVisible": "1"
            },
            "offers": [
              {
                "type": "S",
                "selections": [
                  {
                    "id": 31083490,
                    "name": "Blackpool",
                    "category": "selection",
                    "handicap": "",
                    "handicapId": "",
                    "templateNumber": "1",
                    "price": {
                      "id": 74166183,
                      "down": "8",
                      "euroOdds": "1.125",
                      "ukOdds": "1/8",
                      "notOfferedReason": "",
                      "isOffered": "1",
                      "ukValueDown": "8",
                      "ukValueUp": "1",
                      "up": "1",
                      "usOdds": "-800",
                      "displayOdds": "1/8"
                    }
                  },
                  {
                    "id": 31083491,
                    "name": "Manchester United",
                    "category": "selection",
                    "handicap": "",
                    "handicapId": "",
                    "templateNumber": "2",
                    "price": {
                      "id": 74166184,
                      "down": "5",
                      "euroOdds": "1.80",
                      "ukOdds": "4/5",
                      "notOfferedReason": "",
                      "isOffered": "1",
                      "ukValueDown": "5",
                      "ukValueUp": "4",
                      "up": "4",
                      "usOdds": "-125",
                      "displayOdds": "4/5"
                    }
                  },
                  {
                    "id": 31083492,
                    "name": "Draw",
                    "category": "selection",
                    "handicap": "",
                    "handicapId": "",
                    "templateNumber": "0",
                    "price": {
                      "id": 74166185,
                      "down": "3",
                      "euroOdds": "1.666",
                      "ukOdds": "2/3",
                      "notOfferedReason": "",
                      "isOffered": "1",
                      "ukValueDown": "6",
                      "ukValueUp": "4",
                      "up": "2",
                      "usOdds": "-150",
                      "displayOdds": "2/3"
                    }
                  }
                ]
              }
            ]
          }
        ]
      },
      {
        "id": 832754,
        "name": "Liverpool v Arsenal",
        "category": "event",
        "eventDateTime": "2011-12-18T19:15:00.000+00:00",
        "eventStartingTime": "2011-12-18T19:15:00.000+00:00",
        "periodAndTime": "",
        "is4InRunning": "1",
        "isInRunningDelay": "0",
        "isVisible": "0",
        "sportId": "102",
        "inRunningData": {
          "addScoreA": "",
          "addScoreB": "",
          "addScoreText": "Goals",
          "competitionName": "Soccer",
          "displayTime": null,
          "periodStartTime": null,
          "publishAnticipatedStartTime": "0",
          "actualStartTime": null,
          "isInRunning": "0",
          "numberOfPeriods": "5",
          "participantA": "Liverpool",
          "participantB": "Arsenal",
          "periodLengthInMin": "",
          "periodNumber": "0",
          "periodText": "",
          "scoreA": "0",
          "scoreB": "0",
          "scoreHistory": "",
          "scoreText": "Goals",
          "scores": {
            "participantAScoreHistory": [
            ],
            "participantBScoreHistory": [
            ],
            "scoreHistoryFormatted": null,
            "participantATotalSetScore": null,
            "participantBTotalSetScore": null,
            "totalSetScoreFormatted": null,
            "participantACurrentSetScore": null,
            "participantBCurrentSetScore": null,
            "currentSetScoreFormatted": null,
            "participantACurrentGameScore": "0",
            "participantBCurrentGameScore": "0",
            "currentGameScoreFormatted": "0-0",
            "fullScoreFormatted": "0-0"
          }
        },
        "streamingData": [
        ],
        "books": [
          {
            "id": 3630760,
            "name": "Match Prices",
            "category": "book",
            "marketTypeId": "118",
            "marketType": {
              "id": 118,
              "name": "Match Prices",
              "inrunningDelay": "10",
              "webCouponTemplate": "CPNTEAMTIE",
              "webTemplate": "Team Competition",
              "cpWebCouponTemplate": ""
            },
            "market": {
              "id": 2848156,
              "name": "Match Prices",
              "description": null,
              "eachWayPlaceTerm": "",
              "eachWayReduction": "",
              "isEachWay": "0",
              "isVisible": "1"
            },
            "offers": [
              {
                "type": "S",
                "selections": [
                  {
                    "id": 18264521,
                    "name": "Liverpool",
                    "category": "selection",
                    "handicap": "",
                    "handicapId": "",
                    "templateNumber": "1",
                    "price": {
                      "id": 140343113,
                      "down": "5",
                      "euroOdds": "1.20",
                      "ukOdds": "1/5",
                      "notOfferedReason": "",
                      "isOffered": "1",
                      "ukValueDown": "5",
                      "ukValueUp": "1",
                      "up": "1",
                      "usOdds": "-500",
                      "displayOdds": "1/5"
                    }
                  },
                  {
                    "id": 18264522,
                    "name": "Arsenal",
                    "category": "selection",
                    "handicap": "",
                    "handicapId": "",
                    "templateNumber": "2",
                    "price": {
                      "id": 46380712,
                      "down": "4",
                      "euroOdds": "1.25",
                      "ukOdds": "1/4",
                      "notOfferedReason": "",
                      "isOffered": "1",
                      "ukValueDown": "4",
                      "ukValueUp": "1",
                      "up": "1",
                      "usOdds": "-400",
                      "displayOdds": "1/4"
                    }
                  },
                  {
                    "id": 18264523,
                    "name": "Draw",
                    "category": "selection",
                    "handicap": "",
                    "handicapId": "",
                    "templateNumber": "0",
                    "price": {
                      "id": 149437826,
                      "down": "10",
                      "euroOdds": "1.30",
                      "ukOdds": "3/10",
                      "notOfferedReason": "",
                      "isOffered": "1",
                      "ukValueDown": "10",
                      "ukValueUp": "3",
                      "up": "3",
                      "usOdds": "-334",
                      "displayOdds": "3/10"
                    }
                  }
                ]
              }
            ]
          }
        ]
      },
      {
        "id": 1127522,
        "name": "Selenium Bet Factor Test ",
        "category": "event",
        "eventDateTime": "2012-02-22T13:00:00.000+00:00",
        "eventStartingTime": "2012-02-22T13:00:00.000+00:00",
        "periodAndTime": "",
        "is4InRunning": "1",
        "isInRunningDelay": "1",
        "isVisible": "1",
        "sportId": "102",
        "inRunningData": {
          "addScoreA": "0",
          "addScoreB": "0",
          "addScoreText": "Goals",
          "competitionName": "Soccer",
          "displayTime": null,
          "periodStartTime": null,
          "publishAnticipatedStartTime": "1",
          "actualStartTime": null,
          "isInRunning": "0",
          "numberOfPeriods": "5",
          "participantA": "Dinamo Moscow",
          "participantB": "CSKA Kiev",
          "periodLengthInMin": "",
          "periodNumber": "0",
          "periodText": "",
          "scoreA": "0",
          "scoreB": "0",
          "scoreHistory": "",
          "scoreText": "Goals",
          "scores": {
            "participantAScoreHistory": [
            ],
            "participantBScoreHistory": [
            ],
            "scoreHistoryFormatted": null,
            "participantATotalSetScore": null,
            "participantBTotalSetScore": null,
            "totalSetScoreFormatted": null,
            "participantACurrentSetScore": null,
            "participantBCurrentSetScore": null,
            "currentSetScoreFormatted": null,
            "participantACurrentGameScore": "0",
            "participantBCurrentGameScore": "0",
            "currentGameScoreFormatted": "0-0",
            "fullScoreFormatted": "0-0"
          }
        },
        "streamingData": [
        ],
        "books": [
          {
            "id": 7337054,
            "name": "Match Prices",
            "category": "book",
            "marketTypeId": "118",
            "marketType": {
              "id": 118,
              "name": "Match Prices",
              "inrunningDelay": "10",
              "webCouponTemplate": "CPNTEAMTIE",
              "webTemplate": "Team Competition",
              "cpWebCouponTemplate": ""
            },
            "market": {
              "id": 6349259,
              "name": "Match Prices",
              "description": null,
              "eachWayPlaceTerm": "",
              "eachWayReduction": "",
              "isEachWay": "0",
              "isVisible": "1"
            },
            "offers": [
              {
                "type": "S",
                "selections": [
                  {
                    "id": 25484747,
                    "name": "Draw",
                    "category": "selection",
                    "handicap": "",
                    "handicapId": "",
                    "templateNumber": "0",
                    "price": {
                      "id": 62903015,
                      "down": "3",
                      "euroOdds": "1.333",
                      "ukOdds": "1/3",
                      "notOfferedReason": "",
                      "isOffered": "1",
                      "ukValueDown": "3",
                      "ukValueUp": "1",
                      "up": "1",
                      "usOdds": "-300",
                      "displayOdds": "1/3"
                    }
                  },
                  {
                    "id": 25484748,
                    "name": "CSKA Kiev",
                    "category": "selection",
                    "handicap": "",
                    "handicapId": "",
                    "templateNumber": "2",
                    "price": {
                      "id": 68706098,
                      "down": "2",
                      "euroOdds": "1.50",
                      "ukOdds": "1/2",
                      "notOfferedReason": "",
                      "isOffered": "1",
                      "ukValueDown": "2",
                      "ukValueUp": "1",
                      "up": "1",
                      "usOdds": "-200",
                      "displayOdds": "1/2"
                    }
                  },
                  {
                    "id": 25484749,
                    "name": "Dinamo Moscow",
                    "category": "selection",
                    "handicap": "",
                    "handicapId": "",
                    "templateNumber": "1",
                    "price": {
                      "id": 68768325,
                      "down": "750",
                      "euroOdds": "1.001",
                      "ukOdds": "1/750",
                      "notOfferedReason": "",
                      "isOffered": "1",
                      "ukValueDown": "750",
                      "ukValueUp": "1",
                      "up": "1",
                      "usOdds": "-75000",
                      "displayOdds": "1/750"
                    }
                  }
                ]
              }
            ]
          }
        ]
      },
      {
        "id": 1257807,
        "name": "Liverpool v Milan",
        "category": "event",
        "eventDateTime": "2012-11-15T16:00:00.000+00:00",
        "eventStartingTime": "2012-11-15T16:00:00.000+00:00",
        "periodAndTime": "",
        "is4InRunning": "1",
        "isInRunningDelay": "0",
        "isVisible": "1",
        "sportId": "102",
        "inRunningData": {
          "addScoreA": "0",
          "addScoreB": "0",
          "addScoreText": "Goals",
          "competitionName": "Soccer",
          "displayTime": null,
          "periodStartTime": null,
          "publishAnticipatedStartTime": "0",
          "actualStartTime": null,
          "isInRunning": "0",
          "numberOfPeriods": "5",
          "participantA": "Liverpool",
          "participantB": "Milan",
          "periodLengthInMin": "",
          "periodNumber": "0",
          "periodText": "",
          "scoreA": "0",
          "scoreB": "0",
          "scoreHistory": "",
          "scoreText": "Goals",
          "scores": {
            "participantAScoreHistory": [
            ],
            "participantBScoreHistory": [
            ],
            "scoreHistoryFormatted": null,
            "participantATotalSetScore": null,
            "participantBTotalSetScore": null,
            "totalSetScoreFormatted": null,
            "participantACurrentSetScore": null,
            "participantBCurrentSetScore": null,
            "currentSetScoreFormatted": null,
            "participantACurrentGameScore": "0",
            "participantBCurrentGameScore": "0",
            "currentGameScoreFormatted": "0-0",
            "fullScoreFormatted": "0-0"
          }
        },
        "streamingData": [
        ],
        "books": [
          {
            "id": 9481430,
            "name": "Match Prices",
            "category": "book",
            "marketTypeId": "118",
            "marketType": {
              "id": 118,
              "name": "Match Prices",
              "inrunningDelay": "10",
              "webCouponTemplate": "CPNTEAMTIE",
              "webTemplate": "Team Competition",
              "cpWebCouponTemplate": ""
            },
            "market": {
              "id": 8365748,
              "name": "Match Prices",
              "description": null,
              "eachWayPlaceTerm": "",
              "eachWayReduction": "",
              "isEachWay": "0",
              "isVisible": "1"
            },
            "offers": [
              {
                "type": "S",
                "selections": [
                  {
                    "id": 29831681,
                    "name": "Liverpool",
                    "category": "selection",
                    "handicap": "",
                    "handicapId": "",
                    "templateNumber": "1",
                    "price": {
                      "id": 73092147,
                      "down": "",
                      "euroOdds": "0",
                      "ukOdds": "/",
                      "notOfferedReason": "NO",
                      "isOffered": "0",
                      "ukValueDown": "0",
                      "ukValueUp": "0",
                      "up": "",
                      "usOdds": "0",
                      "displayOdds": "/"
                    }
                  },
                  {
                    "id": 29831685,
                    "name": "Draw",
                    "category": "selection",
                    "handicap": "",
                    "handicapId": "",
                    "templateNumber": "0",
                    "price": {
                      "id": 147747088,
                      "down": "6",
                      "euroOdds": "1.666",
                      "ukOdds": "4/6",
                      "notOfferedReason": "",
                      "isOffered": "1",
                      "ukValueDown": "6",
                      "ukValueUp": "4",
                      "up": "4",
                      "usOdds": "-150",
                      "displayOdds": "4/6"
                    }
                  },
                  {
                    "id": 29831686,
                    "name": "Milan",
                    "category": "selection",
                    "handicap": "",
                    "handicapId": "",
                    "templateNumber": "2",
                    "price": {
                      "id": 97971483,
                      "down": "10",
                      "euroOdds": "1.70",
                      "ukOdds": "7/10",
                      "notOfferedReason": "",
                      "isOffered": "1",
                      "ukValueDown": "10",
                      "ukValueUp": "7",
                      "up": "7",
                      "usOdds": "-143",
                      "displayOdds": "7/10"
                    }
                  }
                ]
              }
            ]
          }
        ]
      },
      {
        "id": 1066603,
        "name": "Bayern v Stutgart",
        "category": "event",
        "eventDateTime": "2012-12-17T21:00:00.000+00:00",
        "eventStartingTime": "2012-12-17T21:00:00.000+00:00",
        "periodAndTime": "",
        "is4InRunning": "1",
        "isInRunningDelay": "1",
        "isVisible": "1",
        "sportId": "102",
        "inRunningData": {
          "addScoreA": "0",
          "addScoreB": "0",
          "addScoreText": "Goals",
          "competitionName": "Soccer",
          "displayTime": null,
          "periodStartTime": null,
          "publishAnticipatedStartTime": "0",
          "actualStartTime": null,
          "isInRunning": "0",
          "numberOfPeriods": "5",
          "participantA": "Bayern Munchen",
          "participantB": "Stuttgart",
          "periodLengthInMin": "",
          "periodNumber": "0",
          "periodText": "",
          "scoreA": "0",
          "scoreB": "0",
          "scoreHistory": "",
          "scoreText": "Goals",
          "scores": {
            "participantAScoreHistory": [
            ],
            "participantBScoreHistory": [
            ],
            "scoreHistoryFormatted": null,
            "participantATotalSetScore": null,
            "participantBTotalSetScore": null,
            "totalSetScoreFormatted": null,
            "participantACurrentSetScore": null,
            "participantBCurrentSetScore": null,
            "currentSetScoreFormatted": null,
            "participantACurrentGameScore": "0",
            "participantBCurrentGameScore": "0",
            "currentGameScoreFormatted": "0-0",
            "fullScoreFormatted": "0-0"
          }
        },
        "streamingData": [
        ],
        "books": [
          {
            "id": 5935161,
            "name": "[Over Under]",
            "category": "book",
            "marketTypeId": "4369",
            "marketType": {
              "id": 4369,
              "name": "[11/11/2011 14:59:47] Over/Under",
              "inrunningDelay": "5",
              "webCouponTemplate": "",
              "webTemplate": "Team Competition",
              "cpWebCouponTemplate": ""
            },
            "market": {
              "id": 4996229,
              "name": "[Over Under]",
              "description": null,
              "eachWayPlaceTerm": "",
              "eachWayReduction": "",
              "isEachWay": "0",
              "isVisible": "1"
            },
            "offers": [
              {
                "type": "H",
                "selections": [
                  {
                    "id": 23637770,
                    "name": "Over 2.5",
                    "category": "selection",
                    "handicap": "-2.5",
                    "handicapId": "2426430",
                    "templateNumber": "1",
                    "price": {
                      "id": 62961041,
                      "down": "1",
                      "euroOdds": "2.00",
                      "ukOdds": "1/1",
                      "notOfferedReason": "",
                      "isOffered": "1",
                      "ukValueDown": "1",
                      "ukValueUp": "1",
                      "up": "1",
                      "usOdds": "100",
                      "displayOdds": "1/1"
                    }
                  },
                  {
                    "id": 23637771,
                    "name": "Under 2.5",
                    "category": "selection",
                    "handicap": "2.5",
                    "handicapId": "2426431",
                    "templateNumber": "2",
                    "price": {
                      "id": 140605677,
                      "down": "3",
                      "euroOdds": "1.666",
                      "ukOdds": "2/3",
                      "notOfferedReason": "",
                      "isOffered": "1",
                      "ukValueDown": "6",
                      "ukValueUp": "4",
                      "up": "2",
                      "usOdds": "-150",
                      "displayOdds": "2/3"
                    }
                  }
                ]
              }
            ]
          }
        ]
      },
      {
        "id": 1274986,
        "name": "PSV Eindhoven v Vitesse",
        "category": "event",
        "eventDateTime": "2013-03-19T18:00:00.000+00:00",
        "eventStartingTime": "2013-03-19T18:00:00.000+00:00",
        "periodAndTime": "",
        "is4InRunning": "1",
        "isInRunningDelay": "1",
        "isVisible": "1",
        "sportId": "102",
        "inRunningData": {
          "addScoreA": "0",
          "addScoreB": "0",
          "addScoreText": "Goals",
          "competitionName": "Soccer",
          "displayTime": null,
          "periodStartTime": null,
          "publishAnticipatedStartTime": "0",
          "actualStartTime": null,
          "isInRunning": "0",
          "numberOfPeriods": "5",
          "participantA": "PSV Eindhoven",
          "participantB": "Vitesse",
          "periodLengthInMin": "",
          "periodNumber": "0",
          "periodText": "",
          "scoreA": "0",
          "scoreB": "0",
          "scoreHistory": "",
          "scoreText": "Goals",
          "scores": {
            "participantAScoreHistory": [
            ],
            "participantBScoreHistory": [
            ],
            "scoreHistoryFormatted": null,
            "participantATotalSetScore": null,
            "participantBTotalSetScore": null,
            "totalSetScoreFormatted": null,
            "participantACurrentSetScore": null,
            "participantBCurrentSetScore": null,
            "currentSetScoreFormatted": null,
            "participantACurrentGameScore": "0",
            "participantBCurrentGameScore": "0",
            "currentGameScoreFormatted": "0-0",
            "fullScoreFormatted": "0-0"
          }
        },
        "streamingData": [
        ],
        "books": [
          {
            "id": 9566773,
            "name": "1-15 min goal/nogoal",
            "category": "book",
            "marketTypeId": "4515",
            "marketType": {
              "id": 4515,
              "name": "In Running Period Goal 15",
              "inrunningDelay": "5",
              "webCouponTemplate": "",
              "webTemplate": "Team Competition",
              "cpWebCouponTemplate": ""
            },
            "market": {
              "id": 8447323,
              "name": "1-15 min goal/nogoal",
              "description": null,
              "eachWayPlaceTerm": "",
              "eachWayReduction": "",
              "isEachWay": "0",
              "isVisible": "1"
            },
            "offers": [
              {
                "type": "S",
                "selections": [
                  {
                    "id": 30111850,
                    "name": "no goal",
                    "category": "selection",
                    "handicap": "",
                    "handicapId": "",
                    "templateNumber": "0",
                    "price": {
                      "id": 71213443,
                      "down": "",
                      "euroOdds": "0",
                      "ukOdds": "/",
                      "notOfferedReason": "NO",
                      "isOffered": "0",
                      "ukValueDown": "0",
                      "ukValueUp": "0",
                      "up": "",
                      "usOdds": "0",
                      "displayOdds": "/"
                    }
                  },
                  {
                    "id": 30111851,
                    "name": "goal",
                    "category": "selection",
                    "handicap": "",
                    "handicapId": "",
                    "templateNumber": "1",
                    "price": {
                      "id": 71213444,
                      "down": "",
                      "euroOdds": "0",
                      "ukOdds": "/",
                      "notOfferedReason": "NO",
                      "isOffered": "0",
                      "ukValueDown": "0",
                      "ukValueUp": "0",
                      "up": "",
                      "usOdds": "0",
                      "displayOdds": "/"
                    }
                  }
                ]
              }
            ]
          }
        ]
      },
      {
        "id": 1419762,
        "name": "Wimbledon Championships 2014",
        "category": "event",
        "eventDateTime": "2013-08-13T16:00:00.000+01:00",
        "eventStartingTime": "2013-08-13T16:00:00.000+01:00",
        "periodAndTime": "",
        "is4InRunning": "1",
        "isInRunningDelay": "1",
        "isVisible": "1",
        "sportId": "8",
        "inRunningData": {
          "addScoreA": "0",
          "addScoreB": "0",
          "addScoreText": "Sets",
          "competitionName": "Tennis (5 Sets)",
          "displayTime": null,
          "periodStartTime": null,
          "publishAnticipatedStartTime": "0",
          "actualStartTime": null,
          "isInRunning": "0",
          "numberOfPeriods": "5",
          "participantA": "Adam, O",
          "participantB": "Anton, J",
          "periodLengthInMin": "",
          "periodNumber": "0",
          "periodText": "",
          "scoreA": "0",
          "scoreB": "0",
          "scoreHistory": "",
          "scoreText": "Games",
          "scores": {
            "participantAScoreHistory": [
            ],
            "participantBScoreHistory": [
            ],
            "scoreHistoryFormatted": null,
            "participantATotalSetScore": "0",
            "participantBTotalSetScore": "0",
            "totalSetScoreFormatted": "0-0",
            "participantACurrentSetScore": "0",
            "participantBCurrentSetScore": "0",
            "currentSetScoreFormatted": "0-0",
            "participantACurrentGameScore": null,
            "participantBCurrentGameScore": null,
            "currentGameScoreFormatted": null,
            "fullScoreFormatted": "0-0"
          }
        },
        "streamingData": [
        ]
      },
      {
        "id": 1458737,
        "name": "Toteham v Liverpool",
        "category": "event",
        "eventDateTime": "2013-09-05T14:00:00.000+01:00",
        "eventStartingTime": "2013-09-05T14:00:00.000+01:00",
        "periodAndTime": "",
        "is4InRunning": "1",
        "isInRunningDelay": "1",
        "isVisible": "1",
        "sportId": "102",
        "inRunningData": {
          "addScoreA": "0",
          "addScoreB": "0",
          "addScoreText": "Goals",
          "competitionName": "Soccer",
          "displayTime": null,
          "periodStartTime": null,
          "publishAnticipatedStartTime": "0",
          "actualStartTime": null,
          "isInRunning": "0",
          "numberOfPeriods": "5",
          "participantA": "Tottenham",
          "participantB": "Liverpool",
          "periodLengthInMin": "",
          "periodNumber": "0",
          "periodText": "",
          "scoreA": "0",
          "scoreB": "0",
          "scoreHistory": "",
          "scoreText": "Goals",
          "scores": {
            "participantAScoreHistory": [
            ],
            "participantBScoreHistory": [
            ],
            "scoreHistoryFormatted": null,
            "participantATotalSetScore": null,
            "participantBTotalSetScore": null,
            "totalSetScoreFormatted": null,
            "participantACurrentSetScore": null,
            "participantBCurrentSetScore": null,
            "currentSetScoreFormatted": null,
            "participantACurrentGameScore": "0",
            "participantBCurrentGameScore": "0",
            "currentGameScoreFormatted": "0-0",
            "fullScoreFormatted": "0-0"
          }
        },
        "streamingData": [
        ],
        "books": [
          {
            "id": 11434144,
            "name": "Match Prices",
            "category": "book",
            "marketTypeId": "6219",
            "marketType": {
              "id": 6219,
              "name": " Match Prices ",
              "inrunningDelay": "5",
              "webCouponTemplate": "CPNTEAMTIE",
              "webTemplate": "Team Competition",
              "cpWebCouponTemplate": ""
            },
            "market": {
              "id": 10110280,
              "name": "Match Prices",
              "description": null,
              "eachWayPlaceTerm": "",
              "eachWayReduction": "",
              "isEachWay": "0",
              "isVisible": "1"
            },
            "offers": [
              {
                "type": "S",
                "selections": [
                  {
                    "id": 34875684,
                    "name": "Draw",
                    "category": "selection",
                    "handicap": "",
                    "handicapId": "",
                    "templateNumber": "0",
                    "price": {
                      "id": 147384828,
                      "down": "1",
                      "euroOdds": "8.00",
                      "ukOdds": "7/1",
                      "notOfferedReason": "",
                      "isOffered": "1",
                      "ukValueDown": "1",
                      "ukValueUp": "7",
                      "up": "7",
                      "usOdds": "700",
                      "displayOdds": "7/1"
                    }
                  },
                  {
                    "id": 34875685,
                    "name": "Liverpool",
                    "category": "selection",
                    "handicap": "",
                    "handicapId": "",
                    "templateNumber": "2",
                    "price": {
                      "id": 147386959,
                      "down": "1",
                      "euroOdds": "4.00",
                      "ukOdds": "3/1",
                      "notOfferedReason": "",
                      "isOffered": "1",
                      "ukValueDown": "1",
                      "ukValueUp": "3",
                      "up": "3",
                      "usOdds": "300",
                      "displayOdds": "3/1"
                    }
                  },
                  {
                    "id": 34875686,
                    "name": "Tottenham",
                    "category": "selection",
                    "handicap": "",
                    "handicapId": "",
                    "templateNumber": "1",
                    "price": {
                      "id": 147434250,
                      "down": "1",
                      "euroOdds": "5.00",
                      "ukOdds": "4/1",
                      "notOfferedReason": "",
                      "isOffered": "1",
                      "ukValueDown": "1",
                      "ukValueUp": "4",
                      "up": "4",
                      "usOdds": "400",
                      "displayOdds": "4/1"
                    }
                  }
                ]
              }
            ]
          }
        ]
      },
      {
        "id": 1458736,
        "name": "Tottenham v Arsenal",
        "category": "event",
        "eventDateTime": "2013-09-05T14:00:00.000+01:00",
        "eventStartingTime": "2013-09-05T14:00:00.000+01:00",
        "periodAndTime": "",
        "is4InRunning": "1",
        "isInRunningDelay": "1",
        "isVisible": "1",
        "sportId": "102",
        "inRunningData": {
          "addScoreA": "0",
          "addScoreB": "0",
          "addScoreText": "Goals",
          "competitionName": "Soccer",
          "displayTime": null,
          "periodStartTime": null,
          "publishAnticipatedStartTime": "0",
          "actualStartTime": null,
          "isInRunning": "0",
          "numberOfPeriods": "5",
          "participantA": "Tottenham",
          "participantB": "Arsenal",
          "periodLengthInMin": "",
          "periodNumber": "0",
          "periodText": "",
          "scoreA": "0",
          "scoreB": "0",
          "scoreHistory": "",
          "scoreText": "Goals",
          "scores": {
            "participantAScoreHistory": [
            ],
            "participantBScoreHistory": [
            ],
            "scoreHistoryFormatted": null,
            "participantATotalSetScore": null,
            "participantBTotalSetScore": null,
            "totalSetScoreFormatted": null,
            "participantACurrentSetScore": null,
            "participantBCurrentSetScore": null,
            "currentSetScoreFormatted": null,
            "participantACurrentGameScore": "0",
            "participantBCurrentGameScore": "0",
            "currentGameScoreFormatted": "0-0",
            "fullScoreFormatted": "0-0"
          }
        },
        "streamingData": [
        ]
      },
      {
        "id": 1458758,
        "name": "Birmingham v Liverpool",
        "category": "event",
        "eventDateTime": "2013-09-05T14:30:00.000+01:00",
        "eventStartingTime": "2013-09-05T14:30:00.000+01:00",
        "periodAndTime": "",
        "is4InRunning": "1",
        "isInRunningDelay": "1",
        "isVisible": "1",
        "sportId": "102",
        "inRunningData": {
          "addScoreA": "0",
          "addScoreB": "0",
          "addScoreText": "Goals",
          "competitionName": "Soccer",
          "displayTime": null,
          "periodStartTime": null,
          "publishAnticipatedStartTime": "0",
          "actualStartTime": null,
          "isInRunning": "0",
          "numberOfPeriods": "5",
          "participantA": "Birmingham ",
          "participantB": "Liverpool",
          "periodLengthInMin": "",
          "periodNumber": "0",
          "periodText": "",
          "scoreA": "0",
          "scoreB": "0",
          "scoreHistory": "",
          "scoreText": "Goals",
          "scores": {
            "participantAScoreHistory": [
            ],
            "participantBScoreHistory": [
            ],
            "scoreHistoryFormatted": null,
            "participantATotalSetScore": null,
            "participantBTotalSetScore": null,
            "totalSetScoreFormatted": null,
            "participantACurrentSetScore": null,
            "participantBCurrentSetScore": null,
            "currentSetScoreFormatted": null,
            "participantACurrentGameScore": "0",
            "participantBCurrentGameScore": "0",
            "currentGameScoreFormatted": "0-0",
            "fullScoreFormatted": "0-0"
          }
        },
        "streamingData": [
        ],
        "books": [
          {
            "id": 11434247,
            "name": "Match Prices",
            "category": "book",
            "marketTypeId": "118",
            "marketType": {
              "id": 118,
              "name": "Match Prices",
              "inrunningDelay": "10",
              "webCouponTemplate": "CPNTEAMTIE",
              "webTemplate": "Team Competition",
              "cpWebCouponTemplate": ""
            },
            "market": {
              "id": 10110389,
              "name": "Match Prices",
              "description": null,
              "eachWayPlaceTerm": "",
              "eachWayReduction": "",
              "isEachWay": "0",
              "isVisible": "1"
            },
            "offers": [
              {
                "type": "S",
                "selections": [
                  {
                    "id": 34875807,
                    "name": "Draw",
                    "category": "selection",
                    "handicap": "",
                    "handicapId": "",
                    "templateNumber": "0",
                    "price": {
                      "id": 80492209,
                      "down": "1",
                      "euroOdds": "4.00",
                      "ukOdds": "3/1",
                      "notOfferedReason": "",
                      "isOffered": "1",
                      "ukValueDown": "1",
                      "ukValueUp": "3",
                      "up": "3",
                      "usOdds": "300",
                      "displayOdds": "3/1"
                    }
                  },
                  {
                    "id": 34875808,
                    "name": "Birmingham",
                    "category": "selection",
                    "handicap": "",
                    "handicapId": "",
                    "templateNumber": "1",
                    "price": {
                      "id": 145011891,
                      "down": "3",
                      "euroOdds": "1.333",
                      "ukOdds": "1/3",
                      "notOfferedReason": "",
                      "isOffered": "1",
                      "ukValueDown": "3",
                      "ukValueUp": "1",
                      "up": "1",
                      "usOdds": "-300",
                      "displayOdds": "1/3"
                    }
                  },
                  {
                    "id": 34875809,
                    "name": "Liverpool",
                    "category": "selection",
                    "handicap": "",
                    "handicapId": "",
                    "templateNumber": "2",
                    "price": {
                      "id": 80492211,
                      "down": "1",
                      "euroOdds": "3.00",
                      "ukOdds": "2/1",
                      "notOfferedReason": "",
                      "isOffered": "1",
                      "ukValueDown": "1",
                      "ukValueUp": "2",
                      "up": "2",
                      "usOdds": "200",
                      "displayOdds": "2/1"
                    }
                  }
                ]
              }
            ]
          }
        ]
      },
      {
        "id": 1952067,
        "name": "Dhanajay UTD v Edmond FC",
        "category": "event",
        "eventDateTime": "2013-09-11T14:00:00.000+01:00",
        "eventStartingTime": "2013-09-11T14:00:00.000+01:00",
        "periodAndTime": "",
        "is4InRunning": "1",
        "isInRunningDelay": "1",
        "isVisible": "1",
        "sportId": "102",
        "inRunningData": {
          "addScoreA": "0",
          "addScoreB": "0",
          "addScoreText": "Goals",
          "competitionName": "Soccer",
          "displayTime": null,
          "periodStartTime": null,
          "publishAnticipatedStartTime": "1",
          "actualStartTime": null,
          "isInRunning": "0",
          "numberOfPeriods": "5",
          "participantA": "",
          "participantB": "",
          "periodLengthInMin": "",
          "periodNumber": "0",
          "periodText": "",
          "scoreA": "0",
          "scoreB": "0",
          "scoreHistory": "",
          "scoreText": "Goals",
          "scores": {
            "participantAScoreHistory": [
            ],
            "participantBScoreHistory": [
            ],
            "scoreHistoryFormatted": null,
            "participantATotalSetScore": null,
            "participantBTotalSetScore": null,
            "totalSetScoreFormatted": null,
            "participantACurrentSetScore": null,
            "participantBCurrentSetScore": null,
            "currentSetScoreFormatted": null,
            "participantACurrentGameScore": "0",
            "participantBCurrentGameScore": "0",
            "currentGameScoreFormatted": "0-0",
            "fullScoreFormatted": "0-0"
          }
        },
        "streamingData": [
        ],
        "books": [
          {
            "id": 13641091,
            "name": "Match Prices",
            "category": "book",
            "marketTypeId": "118",
            "marketType": {
              "id": 118,
              "name": "Match Prices",
              "inrunningDelay": "10",
              "webCouponTemplate": "CPNTEAMTIE",
              "webTemplate": "Team Competition",
              "cpWebCouponTemplate": ""
            },
            "market": {
              "id": 12319854,
              "name": "Match Prices",
              "description": null,
              "eachWayPlaceTerm": "",
              "eachWayReduction": "",
              "isEachWay": "0",
              "isVisible": "1"
            },
            "offers": [
              {
                "type": "S",
                "selections": [
                  {
                    "id": 42837924,
                    "name": "Draw",
                    "category": "selection",
                    "handicap": "",
                    "handicapId": "",
                    "templateNumber": "0",
                    "price": {
                      "id": 101566546,
                      "down": "10",
                      "euroOdds": "1.30",
                      "ukOdds": "3/10",
                      "notOfferedReason": "",
                      "isOffered": "1",
                      "ukValueDown": "10",
                      "ukValueUp": "3",
                      "up": "3",
                      "usOdds": "-334",
                      "displayOdds": "3/10"
                    }
                  },
                  {
                    "id": 42837925,
                    "name": "Dhananjay UTD",
                    "category": "selection",
                    "handicap": "",
                    "handicapId": "",
                    "templateNumber": "1",
                    "price": {
                      "id": 98536459,
                      "down": "4",
                      "euroOdds": "1.25",
                      "ukOdds": "1/4",
                      "notOfferedReason": "",
                      "isOffered": "1",
                      "ukValueDown": "4",
                      "ukValueUp": "1",
                      "up": "1",
                      "usOdds": "-400",
                      "displayOdds": "1/4"
                    }
                  },
                  {
                    "id": 42837926,
                    "name": "Edmond FC",
                    "category": "selection",
                    "handicap": "",
                    "handicapId": "",
                    "templateNumber": "2",
                    "price": {
                      "id": 98536460,
                      "down": "5",
                      "euroOdds": "1.20",
                      "ukOdds": "1/5",
                      "notOfferedReason": "",
                      "isOffered": "1",
                      "ukValueDown": "5",
                      "ukValueUp": "1",
                      "up": "1",
                      "usOdds": "-500",
                      "displayOdds": "1/5"
                    }
                  }
                ]
              }
            ]
          }
        ]
      },
      {
        "id": 1952074,
        "name": "Dhananjay UTD v Anki UTD",
        "category": "event",
        "eventDateTime": "2013-09-11T14:00:00.000+01:00",
        "eventStartingTime": "2013-09-11T14:00:00.000+01:00",
        "periodAndTime": "",
        "is4InRunning": "1",
        "isInRunningDelay": "1",
        "isVisible": "1",
        "sportId": "102",
        "inRunningData": {
          "addScoreA": "0",
          "addScoreB": "0",
          "addScoreText": "Goals",
          "competitionName": "Soccer",
          "displayTime": null,
          "periodStartTime": null,
          "publishAnticipatedStartTime": "0",
          "actualStartTime": null,
          "isInRunning": "0",
          "numberOfPeriods": "5",
          "participantA": "",
          "participantB": "",
          "periodLengthInMin": "",
          "periodNumber": "0",
          "periodText": "",
          "scoreA": "0",
          "scoreB": "0",
          "scoreHistory": "",
          "scoreText": "Goals",
          "scores": {
            "participantAScoreHistory": [
            ],
            "participantBScoreHistory": [
            ],
            "scoreHistoryFormatted": null,
            "participantATotalSetScore": null,
            "participantBTotalSetScore": null,
            "totalSetScoreFormatted": null,
            "participantACurrentSetScore": null,
            "participantBCurrentSetScore": null,
            "currentSetScoreFormatted": null,
            "participantACurrentGameScore": "0",
            "participantBCurrentGameScore": "0",
            "currentGameScoreFormatted": "0-0",
            "fullScoreFormatted": "0-0"
          }
        },
        "streamingData": [
        ],
        "books": [
          {
            "id": 13641093,
            "name": "Match Prices",
            "category": "book",
            "marketTypeId": "118",
            "marketType": {
              "id": 118,
              "name": "Match Prices",
              "inrunningDelay": "10",
              "webCouponTemplate": "CPNTEAMTIE",
              "webTemplate": "Team Competition",
              "cpWebCouponTemplate": ""
            },
            "market": {
              "id": 12319856,
              "name": "Match Prices",
              "description": null,
              "eachWayPlaceTerm": "",
              "eachWayReduction": "",
              "isEachWay": "0",
              "isVisible": "1"
            },
            "offers": [
              {
                "type": "S",
                "selections": [
                  {
                    "id": 42837950,
                    "name": "Draw",
                    "category": "selection",
                    "handicap": "",
                    "handicapId": "",
                    "templateNumber": "0",
                    "price": {
                      "id": 98537330,
                      "down": "4",
                      "euroOdds": "1.50",
                      "ukOdds": "2/4",
                      "notOfferedReason": "",
                      "isOffered": "1",
                      "ukValueDown": "2",
                      "ukValueUp": "1",
                      "up": "2",
                      "usOdds": "-200",
                      "displayOdds": "2/4"
                    }
                  },
                  {
                    "id": 42837951,
                    "name": "Dhananjay UTD",
                    "category": "selection",
                    "handicap": "",
                    "handicapId": "",
                    "templateNumber": "1",
                    "price": {
                      "id": 98537331,
                      "down": "5",
                      "euroOdds": "1.40",
                      "ukOdds": "2/5",
                      "notOfferedReason": "",
                      "isOffered": "1",
                      "ukValueDown": "5",
                      "ukValueUp": "2",
                      "up": "2",
                      "usOdds": "-250",
                      "displayOdds": "2/5"
                    }
                  },
                  {
                    "id": 42837954,
                    "name": "Anki UTD",
                    "category": "selection",
                    "handicap": "",
                    "handicapId": "",
                    "templateNumber": "2",
                    "price": {
                      "id": 98537332,
                      "down": "2",
                      "euroOdds": "1.50",
                      "ukOdds": "1/2",
                      "notOfferedReason": "",
                      "isOffered": "1",
                      "ukValueDown": "2",
                      "ukValueUp": "1",
                      "up": "1",
                      "usOdds": "-200",
                      "displayOdds": "1/2"
                    }
                  }
                ]
              }
            ]
          }
        ]
      },
      {
        "id": 1952068,
        "name": "Sushama FC v Anki Utd",
        "category": "event",
        "eventDateTime": "2013-09-11T14:00:00.000+01:00",
        "eventStartingTime": "2013-09-11T14:00:00.000+01:00",
        "periodAndTime": "",
        "is4InRunning": "1",
        "isInRunningDelay": "1",
        "isVisible": "1",
        "sportId": "102",
        "inRunningData": {
          "addScoreA": "0",
          "addScoreB": "0",
          "addScoreText": "Goals",
          "competitionName": "Soccer",
          "displayTime": null,
          "periodStartTime": null,
          "publishAnticipatedStartTime": "0",
          "actualStartTime": null,
          "isInRunning": "0",
          "numberOfPeriods": "5",
          "participantA": "",
          "participantB": "",
          "periodLengthInMin": "",
          "periodNumber": "0",
          "periodText": "",
          "scoreA": "0",
          "scoreB": "0",
          "scoreHistory": "",
          "scoreText": "Goals",
          "scores": {
            "participantAScoreHistory": [
            ],
            "participantBScoreHistory": [
            ],
            "scoreHistoryFormatted": null,
            "participantATotalSetScore": null,
            "participantBTotalSetScore": null,
            "totalSetScoreFormatted": null,
            "participantACurrentSetScore": null,
            "participantBCurrentSetScore": null,
            "currentSetScoreFormatted": null,
            "participantACurrentGameScore": "0",
            "participantBCurrentGameScore": "0",
            "currentGameScoreFormatted": "0-0",
            "fullScoreFormatted": "0-0"
          }
        },
        "streamingData": [
        ],
        "books": [
          {
            "id": 13641092,
            "name": "Match Prices",
            "category": "book",
            "marketTypeId": "118",
            "marketType": {
              "id": 118,
              "name": "Match Prices",
              "inrunningDelay": "10",
              "webCouponTemplate": "CPNTEAMTIE",
              "webTemplate": "Team Competition",
              "cpWebCouponTemplate": ""
            },
            "market": {
              "id": 12319855,
              "name": "Match Prices",
              "description": null,
              "eachWayPlaceTerm": "",
              "eachWayReduction": "",
              "isEachWay": "0",
              "isVisible": "1"
            },
            "offers": [
              {
                "type": "S",
                "selections": [
                  {
                    "id": 42837933,
                    "name": "Draw",
                    "category": "selection",
                    "handicap": "",
                    "handicapId": "",
                    "templateNumber": "0",
                    "price": {
                      "id": 98536683,
                      "down": "2",
                      "euroOdds": "1.50",
                      "ukOdds": "1/2",
                      "notOfferedReason": "",
                      "isOffered": "1",
                      "ukValueDown": "2",
                      "ukValueUp": "1",
                      "up": "1",
                      "usOdds": "-200",
                      "displayOdds": "1/2"
                    }
                  },
                  {
                    "id": 42837934,
                    "name": "Sushama FC",
                    "category": "selection",
                    "handicap": "",
                    "handicapId": "",
                    "templateNumber": "1",
                    "price": {
                      "id": 98536684,
                      "down": "3",
                      "euroOdds": "1.333",
                      "ukOdds": "1/3",
                      "notOfferedReason": "",
                      "isOffered": "1",
                      "ukValueDown": "3",
                      "ukValueUp": "1",
                      "up": "1",
                      "usOdds": "-300",
                      "displayOdds": "1/3"
                    }
                  },
                  {
                    "id": 42837935,
                    "name": "Anki Utd",
                    "category": "selection",
                    "handicap": "",
                    "handicapId": "",
                    "templateNumber": "2",
                    "price": {
                      "id": 98536685,
                      "down": "4",
                      "euroOdds": "1.25",
                      "ukOdds": "1/4",
                      "notOfferedReason": "",
                      "isOffered": "1",
                      "ukValueDown": "4",
                      "ukValueUp": "1",
                      "up": "1",
                      "usOdds": "-400",
                      "displayOdds": "1/4"
                    }
                  }
                ]
              }
            ]
          }
        ]
      },
      {
        "id": 803281,
        "name": "Tottenham v Newcastle",
        "category": "event",
        "eventDateTime": "2013-10-18T01:05:00.000+01:00",
        "eventStartingTime": "2013-10-18T01:05:00.000+01:00",
        "periodAndTime": "",
        "is4InRunning": "1",
        "isInRunningDelay": "1",
        "isVisible": "1",
        "sportId": "102",
        "inRunningData": {
          "addScoreA": "0",
          "addScoreB": "0",
          "addScoreText": "Goals",
          "competitionName": "Soccer",
          "displayTime": null,
          "periodStartTime": null,
          "publishAnticipatedStartTime": "1",
          "actualStartTime": null,
          "isInRunning": "0",
          "numberOfPeriods": "5",
          "participantA": "Tottenham",
          "participantB": "Newcastle",
          "periodLengthInMin": "",
          "periodNumber": "0",
          "periodText": "",
          "scoreA": "0",
          "scoreB": "0",
          "scoreHistory": "",
          "scoreText": "Goals",
          "scores": {
            "participantAScoreHistory": [
            ],
            "participantBScoreHistory": [
            ],
            "scoreHistoryFormatted": null,
            "participantATotalSetScore": null,
            "participantBTotalSetScore": null,
            "totalSetScoreFormatted": null,
            "participantACurrentSetScore": null,
            "participantBCurrentSetScore": null,
            "currentSetScoreFormatted": null,
            "participantACurrentGameScore": "0",
            "participantBCurrentGameScore": "0",
            "currentGameScoreFormatted": "0-0",
            "fullScoreFormatted": "0-0"
          }
        },
        "streamingData": [
        ]
      },
      {
        "id": 1274981,
        "name": "NOAD ADVENDO Combinatie Breda v Alles Door Oefening Den Haag",
        "category": "event",
        "eventDateTime": "2013-10-18T19:00:00.000+01:00",
        "eventStartingTime": "2013-10-18T19:00:00.000+01:00",
        "periodAndTime": "",
        "is4InRunning": "1",
        "isInRunningDelay": "1",
        "isVisible": "1",
        "sportId": "102",
        "inRunningData": {
          "addScoreA": "0",
          "addScoreB": "0",
          "addScoreText": "Goals",
          "competitionName": "Soccer",
          "displayTime": null,
          "periodStartTime": null,
          "publishAnticipatedStartTime": "0",
          "actualStartTime": null,
          "isInRunning": "0",
          "numberOfPeriods": "5",
          "participantA": "NAC Breda",
          "participantB": "ADO Den Haag",
          "periodLengthInMin": "",
          "periodNumber": "0",
          "periodText": "",
          "scoreA": "0",
          "scoreB": "0",
          "scoreHistory": "",
          "scoreText": "Goals",
          "scores": {
            "participantAScoreHistory": [
            ],
            "participantBScoreHistory": [
            ],
            "scoreHistoryFormatted": null,
            "participantATotalSetScore": null,
            "participantBTotalSetScore": null,
            "totalSetScoreFormatted": null,
            "participantACurrentSetScore": null,
            "participantBCurrentSetScore": null,
            "currentSetScoreFormatted": null,
            "participantACurrentGameScore": "0",
            "participantBCurrentGameScore": "0",
            "currentGameScoreFormatted": "0-0",
            "fullScoreFormatted": "0-0"
          }
        },
        "streamingData": [
        ],
        "books": [
          {
            "id": 9566594,
            "name": "Match Prices",
            "category": "book",
            "marketTypeId": "118",
            "marketType": {
              "id": 118,
              "name": "Match Prices",
              "inrunningDelay": "10",
              "webCouponTemplate": "CPNTEAMTIE",
              "webTemplate": "Team Competition",
              "cpWebCouponTemplate": ""
            },
            "market": {
              "id": 8447138,
              "name": "Match Prices",
              "description": null,
              "eachWayPlaceTerm": "",
              "eachWayReduction": "",
              "isEachWay": "0",
              "isVisible": "1"
            },
            "offers": [
              {
                "type": "S",
                "selections": [
                  {
                    "id": 30111296,
                    "name": "NAC Breda",
                    "category": "selection",
                    "handicap": "",
                    "handicapId": "",
                    "templateNumber": "1",
                    "price": {
                      "id": 145049438,
                      "down": "2",
                      "euroOdds": "21.00",
                      "ukOdds": "40/2",
                      "notOfferedReason": "",
                      "isOffered": "1",
                      "ukValueDown": "1",
                      "ukValueUp": "20",
                      "up": "40",
                      "usOdds": "2000",
                      "displayOdds": "40/2"
                    }
                  },
                  {
                    "id": 30111297,
                    "name": "ADO Den Haag",
                    "category": "selection",
                    "handicap": "",
                    "handicapId": "",
                    "templateNumber": "2",
                    "price": {
                      "id": 71212908,
                      "down": "1",
                      "euroOdds": "2.00",
                      "ukOdds": "1/1",
                      "notOfferedReason": "",
                      "isOffered": "1",
                      "ukValueDown": "1",
                      "ukValueUp": "1",
                      "up": "1",
                      "usOdds": "100",
                      "displayOdds": "15000/10000"
                    }
                  },
                  {
                    "id": 30111298,
                    "name": "Draw",
                    "category": "selection",
                    "handicap": "",
                    "handicapId": "",
                    "templateNumber": "0",
                    "price": {
                      "id": 71212909,
                      "down": "1",
                      "euroOdds": "2.00",
                      "ukOdds": "1/1",
                      "notOfferedReason": "",
                      "isOffered": "1",
                      "ukValueDown": "1",
                      "ukValueUp": "1",
                      "up": "1",
                      "usOdds": "100",
                      "displayOdds": "1/1000000000893284324"
                    }
                  }
                ]
              }
            ]
          }
        ]
      },
      {
        "id": 790455,
        "name": "Rangers v Celtic",
        "category": "event",
        "eventDateTime": "2013-10-18T22:02:00.000+01:00",
        "eventStartingTime": "2013-10-18T22:02:00.000+01:00",
        "periodAndTime": "",
        "is4InRunning": "1",
        "isInRunningDelay": "1",
        "isVisible": "1",
        "sportId": "102",
        "inRunningData": {
          "addScoreA": "0",
          "addScoreB": "0",
          "addScoreText": "Goals",
          "competitionName": "Soccer",
          "displayTime": null,
          "periodStartTime": null,
          "publishAnticipatedStartTime": "1",
          "actualStartTime": null,
          "isInRunning": "0",
          "numberOfPeriods": "5",
          "participantA": "Rangers",
          "participantB": "Celtic",
          "periodLengthInMin": "",
          "periodNumber": "0",
          "periodText": "",
          "scoreA": "0",
          "scoreB": "0",
          "scoreHistory": "",
          "scoreText": "Goals",
          "scores": {
            "participantAScoreHistory": [
            ],
            "participantBScoreHistory": [
            ],
            "scoreHistoryFormatted": null,
            "participantATotalSetScore": null,
            "participantBTotalSetScore": null,
            "totalSetScoreFormatted": null,
            "participantACurrentSetScore": null,
            "participantBCurrentSetScore": null,
            "currentSetScoreFormatted": null,
            "participantACurrentGameScore": "0",
            "participantBCurrentGameScore": "0",
            "currentGameScoreFormatted": "0-0",
            "fullScoreFormatted": "0-0"
          }
        },
        "streamingData": [
        ]
      },
      {
        "id": 1458738,
        "name": "Crystal Palace v Arsenal",
        "category": "event",
        "eventDateTime": "2013-11-05T14:00:00.000+00:00",
        "eventStartingTime": "2013-11-05T14:00:00.000+00:00",
        "periodAndTime": "",
        "is4InRunning": "1",
        "isInRunningDelay": "1",
        "isVisible": "1",
        "sportId": "102",
        "inRunningData": {
          "addScoreA": "0",
          "addScoreB": "0",
          "addScoreText": "Goals",
          "competitionName": "Soccer",
          "displayTime": null,
          "periodStartTime": null,
          "publishAnticipatedStartTime": "0",
          "actualStartTime": null,
          "isInRunning": "0",
          "numberOfPeriods": "5",
          "participantA": "Crystal Palace",
          "participantB": "Arsenal",
          "periodLengthInMin": "",
          "periodNumber": "0",
          "periodText": "",
          "scoreA": "0",
          "scoreB": "0",
          "scoreHistory": "",
          "scoreText": "Goals",
          "scores": {
            "participantAScoreHistory": [
            ],
            "participantBScoreHistory": [
            ],
            "scoreHistoryFormatted": null,
            "participantATotalSetScore": null,
            "participantBTotalSetScore": null,
            "totalSetScoreFormatted": null,
            "participantACurrentSetScore": null,
            "participantBCurrentSetScore": null,
            "currentSetScoreFormatted": null,
            "participantACurrentGameScore": "0",
            "participantBCurrentGameScore": "0",
            "currentGameScoreFormatted": "0-0",
            "fullScoreFormatted": "0-0"
          }
        },
        "streamingData": [
        ],
        "books": [
          {
            "id": 11434165,
            "name": "Match Prices",
            "category": "book",
            "marketTypeId": "118",
            "marketType": {
              "id": 118,
              "name": "Match Prices",
              "inrunningDelay": "10",
              "webCouponTemplate": "CPNTEAMTIE",
              "webTemplate": "Team Competition",
              "cpWebCouponTemplate": ""
            },
            "market": {
              "id": 10110303,
              "name": "Match Prices",
              "description": null,
              "eachWayPlaceTerm": "",
              "eachWayReduction": "",
              "isEachWay": "0",
              "isVisible": "1"
            },
            "offers": [
              {
                "type": "S",
                "selections": [
                  {
                    "id": 34875687,
                    "name": "Draw",
                    "category": "selection",
                    "handicap": "",
                    "handicapId": "",
                    "templateNumber": "0",
                    "price": {
                      "id": 80491939,
                      "down": "1",
                      "euroOdds": "5.00",
                      "ukOdds": "4/1",
                      "notOfferedReason": "",
                      "isOffered": "1",
                      "ukValueDown": "1",
                      "ukValueUp": "4",
                      "up": "4",
                      "usOdds": "400",
                      "displayOdds": "4/1"
                    }
                  },
                  {
                    "id": 34875688,
                    "name": "Arsenal",
                    "category": "selection",
                    "handicap": "",
                    "handicapId": "",
                    "templateNumber": "2",
                    "price": {
                      "id": 80491940,
                      "down": "1",
                      "euroOdds": "3.00",
                      "ukOdds": "2/1",
                      "notOfferedReason": "",
                      "isOffered": "1",
                      "ukValueDown": "1",
                      "ukValueUp": "2",
                      "up": "2",
                      "usOdds": "200",
                      "displayOdds": "2/1"
                    }
                  }
                ]
              }
            ]
          }
        ]
      },
      {
        "id": 1459066,
        "name": "West ham v Arsenal",
        "category": "event",
        "eventDateTime": "2013-11-06T14:00:00.000+00:00",
        "eventStartingTime": "2013-11-06T14:00:00.000+00:00",
        "periodAndTime": "",
        "is4InRunning": "1",
        "isInRunningDelay": "1",
        "isVisible": "1",
        "sportId": "102",
        "inRunningData": {
          "addScoreA": "0",
          "addScoreB": "0",
          "addScoreText": "Goals",
          "competitionName": "Soccer",
          "displayTime": null,
          "periodStartTime": null,
          "publishAnticipatedStartTime": "0",
          "actualStartTime": null,
          "isInRunning": "0",
          "numberOfPeriods": "5",
          "participantA": "West Ham",
          "participantB": "Arsenal",
          "periodLengthInMin": "",
          "periodNumber": "0",
          "periodText": "",
          "scoreA": "0",
          "scoreB": "0",
          "scoreHistory": "",
          "scoreText": "Goals",
          "scores": {
            "participantAScoreHistory": [
            ],
            "participantBScoreHistory": [
            ],
            "scoreHistoryFormatted": null,
            "participantATotalSetScore": null,
            "participantBTotalSetScore": null,
            "totalSetScoreFormatted": null,
            "participantACurrentSetScore": null,
            "participantBCurrentSetScore": null,
            "currentSetScoreFormatted": null,
            "participantACurrentGameScore": "0",
            "participantBCurrentGameScore": "0",
            "currentGameScoreFormatted": "0-0",
            "fullScoreFormatted": "0-0"
          }
        },
        "streamingData": [
        ],
        "books": [
          {
            "id": 11437843,
            "name": "Match Prices",
            "category": "book",
            "marketTypeId": "118",
            "marketType": {
              "id": 118,
              "name": "Match Prices",
              "inrunningDelay": "10",
              "webCouponTemplate": "CPNTEAMTIE",
              "webTemplate": "Team Competition",
              "cpWebCouponTemplate": ""
            },
            "market": {
              "id": 10114079,
              "name": "Match Prices",
              "description": null,
              "eachWayPlaceTerm": "",
              "eachWayReduction": "",
              "isEachWay": "0",
              "isVisible": "1"
            },
            "offers": [
              {
                "type": "S",
                "selections": [
                  {
                    "id": 34892336,
                    "name": "Draw",
                    "category": "selection",
                    "handicap": "",
                    "handicapId": "",
                    "templateNumber": "0",
                    "price": {
                      "id": 80514215,
                      "down": "2",
                      "euroOdds": "2.50",
                      "ukOdds": "3/2",
                      "notOfferedReason": "",
                      "isOffered": "1",
                      "ukValueDown": "4",
                      "ukValueUp": "6",
                      "up": "3",
                      "usOdds": "150",
                      "displayOdds": "3/2"
                    }
                  },
                  {
                    "id": 34892337,
                    "name": "Arsenal",
                    "category": "selection",
                    "handicap": "",
                    "handicapId": "",
                    "templateNumber": "2",
                    "price": {
                      "id": 80514216,
                      "down": "1",
                      "euroOdds": "3.00",
                      "ukOdds": "2/1",
                      "notOfferedReason": "",
                      "isOffered": "1",
                      "ukValueDown": "1",
                      "ukValueUp": "2",
                      "up": "2",
                      "usOdds": "200",
                      "displayOdds": "2/1"
                    }
                  },
                  {
                    "id": 34892338,
                    "name": "West Ham",
                    "category": "selection",
                    "handicap": "",
                    "handicapId": "",
                    "templateNumber": "1",
                    "price": {
                      "id": 141700884,
                      "down": "3",
                      "euroOdds": "1.333",
                      "ukOdds": "1/3",
                      "notOfferedReason": "",
                      "isOffered": "1",
                      "ukValueDown": "3",
                      "ukValueUp": "1",
                      "up": "1",
                      "usOdds": "-300",
                      "displayOdds": "1/3"
                    }
                  }
                ]
              }
            ]
          }
        ]
      },
      {
        "id": 1961608,
        "name": "Draw No Bet Highlighs",
        "category": "event",
        "eventDateTime": "2014-02-16T13:00:00.000+00:00",
        "eventStartingTime": "2014-02-16T13:00:00.000+00:00",
        "periodAndTime": "",
        "is4InRunning": "1",
        "isInRunningDelay": "1",
        "isVisible": "1",
        "sportId": "102",
        "inRunningData": {
          "addScoreA": "0",
          "addScoreB": "0",
          "addScoreText": "Goals",
          "competitionName": "Soccer",
          "displayTime": null,
          "periodStartTime": null,
          "publishAnticipatedStartTime": "1",
          "actualStartTime": null,
          "isInRunning": "0",
          "numberOfPeriods": "5",
          "participantA": "",
          "participantB": "",
          "periodLengthInMin": "",
          "periodNumber": "0",
          "periodText": "",
          "scoreA": "0",
          "scoreB": "0",
          "scoreHistory": "",
          "scoreText": "Goals",
          "scores": {
            "participantAScoreHistory": [
            ],
            "participantBScoreHistory": [
            ],
            "scoreHistoryFormatted": null,
            "participantATotalSetScore": null,
            "participantBTotalSetScore": null,
            "totalSetScoreFormatted": null,
            "participantACurrentSetScore": null,
            "participantBCurrentSetScore": null,
            "currentSetScoreFormatted": null,
            "participantACurrentGameScore": "0",
            "participantBCurrentGameScore": "0",
            "currentGameScoreFormatted": "0-0",
            "fullScoreFormatted": "0-0"
          }
        },
        "streamingData": [
        ],
        "books": [
          {
            "id": 13750002,
            "name": "Draw No Bet Market",
            "category": "book",
            "marketTypeId": "1021",
            "marketType": {
              "id": 1021,
              "name": "Draw No Bet",
              "inrunningDelay": "",
              "webCouponTemplate": "CPNTEAMNOTIE",
              "webTemplate": "Team Competition",
              "cpWebCouponTemplate": ""
            },
            "market": {
              "id": 12422601,
              "name": "Draw No Bet Market",
              "description": null,
              "eachWayPlaceTerm": "",
              "eachWayReduction": "",
              "isEachWay": "0",
              "isVisible": "1"
            },
            "offers": [
              {
                "type": "S",
                "selections": [
                  {
                    "id": 43206184,
                    "name": "test1",
                    "category": "selection",
                    "handicap": "",
                    "handicapId": "",
                    "templateNumber": "1",
                    "price": {
                      "id": 99208526,
                      "down": "1",
                      "euroOdds": "2.00",
                      "ukOdds": "1/1",
                      "notOfferedReason": "",
                      "isOffered": "1",
                      "ukValueDown": "1",
                      "ukValueUp": "1",
                      "up": "1",
                      "usOdds": "100",
                      "displayOdds": "1/1"
                    }
                  },
                  {
                    "id": 43206185,
                    "name": "test2",
                    "category": "selection",
                    "handicap": "",
                    "handicapId": "",
                    "templateNumber": "2",
                    "price": {
                      "id": 99208527,
                      "down": "2",
                      "euroOdds": "1.50",
                      "ukOdds": "1/2",
                      "notOfferedReason": "",
                      "isOffered": "1",
                      "ukValueDown": "2",
                      "ukValueUp": "1",
                      "up": "1",
                      "usOdds": "-200",
                      "displayOdds": "1/2"
                    }
                  }
                ]
              }
            ]
          }
        ]
      },
      {
        "id": 1961145,
        "name": "Stoke v Man City",
        "category": "event",
        "eventDateTime": "2014-03-03T14:00:00.000+00:00",
        "eventStartingTime": "2014-03-03T14:00:00.000+00:00",
        "periodAndTime": "528691' 1st Half",
        "is4InRunning": "1",
        "isInRunningDelay": "1",
        "isVisible": "1",
        "sportId": "102",
        "inRunningData": {
          "addScoreA": "0",
          "addScoreB": "0",
          "addScoreText": "Goals",
          "competitionName": "Soccer",
          "displayTime": "2014-03-04T11:12:48.000+00:00",
          "periodStartTime": "2014-03-04T11:12:48.000+00:00",
          "publishAnticipatedStartTime": "0",
          "actualStartTime": "2014-03-04T11:12:48.000+00:00",
          "isInRunning": "1",
          "numberOfPeriods": "5",
          "participantA": "West Ham",
          "participantB": "Manchester City",
          "periodLengthInMin": "45",
          "periodNumber": "1",
          "periodText": "1st Half",
          "scoreA": "0",
          "scoreB": "0",
          "scoreHistory": "",
          "scoreText": "Goals",
          "scores": {
            "participantAScoreHistory": [
            ],
            "participantBScoreHistory": [
            ],
            "scoreHistoryFormatted": null,
            "participantATotalSetScore": null,
            "participantBTotalSetScore": null,
            "totalSetScoreFormatted": null,
            "participantACurrentSetScore": null,
            "participantBCurrentSetScore": null,
            "currentSetScoreFormatted": null,
            "participantACurrentGameScore": "0",
            "participantBCurrentGameScore": "0",
            "currentGameScoreFormatted": "0-0",
            "fullScoreFormatted": "0-0"
          }
        },
        "streamingData": [
          {
            "audioLanguages": "",
            "description": "SOCCER: Army United v Samut Songkhram",
            "extId": "4ud0amymooq096u2wns4e6rxl",
            "extVenueId": "",
            "geoBlocked": "",
            "isChargeable": "0",
            "location": "",
            "providerId": "PERFORM",
            "stmPlatformType": "",
            "stmStatus": "",
            "stmTechnology": "",
            "streamingId": "4ud0amymooq096u2wns4e6rxl",
            "type": "DATA"
          }
        ],
        "books": [
          {
            "id": 13746532,
            "name": "Stoke v Man City",
            "category": "book",
            "marketTypeId": "118",
            "marketType": {
              "id": 118,
              "name": "Match Prices",
              "inrunningDelay": "10",
              "webCouponTemplate": "CPNTEAMTIE",
              "webTemplate": "Team Competition",
              "cpWebCouponTemplate": ""
            },
            "market": {
              "id": 12420040,
              "name": "Stoke v Man City",
              "description": null,
              "eachWayPlaceTerm": "",
              "eachWayReduction": "",
              "isEachWay": "0",
              "isVisible": "1"
            },
            "offers": [
              {
                "type": "S",
                "selections": [
                  {
                    "id": 43194449,
                    "name": "Draw",
                    "category": "selection",
                    "handicap": "",
                    "handicapId": "",
                    "templateNumber": "0",
                    "price": {
                      "id": 99209833,
                      "down": "1",
                      "euroOdds": "2.00",
                      "ukOdds": "1/1",
                      "notOfferedReason": "",
                      "isOffered": "1",
                      "ukValueDown": "1",
                      "ukValueUp": "1",
                      "up": "1",
                      "usOdds": "100",
                      "displayOdds": "1/1"
                    }
                  },
                  {
                    "id": 43194552,
                    "name": "Stoke",
                    "category": "selection",
                    "handicap": "",
                    "handicapId": "",
                    "templateNumber": "1",
                    "price": {
                      "id": 99209834,
                      "down": "1",
                      "euroOdds": "3.00",
                      "ukOdds": "2/1",
                      "notOfferedReason": "",
                      "isOffered": "1",
                      "ukValueDown": "1",
                      "ukValueUp": "2",
                      "up": "2",
                      "usOdds": "200",
                      "displayOdds": "2/1"
                    }
                  },
                  {
                    "id": 43194553,
                    "name": "Man City",
                    "category": "selection",
                    "handicap": "",
                    "handicapId": "",
                    "templateNumber": "2",
                    "price": {
                      "id": 99209849,
                      "down": "1",
                      "euroOdds": "4.00",
                      "ukOdds": "3/1",
                      "notOfferedReason": "",
                      "isOffered": "1",
                      "ukValueDown": "1",
                      "ukValueUp": "3",
                      "up": "3",
                      "usOdds": "300",
                      "displayOdds": "3/1"
                    }
                  }
                ]
              }
            ]
          }
        ]
      }
    ]
  }
}