{
  "details": {
    "responseTime": 2,
    "totalEvents": 10,
    "events": [
      {
        "id": 4594883,
        "name": "Courts Young Lions v Albirex Niigata FC",
        "category": "event",
        "eventDateTime": "2015-08-06T12:30:00.000+01:00",
        "eventStartingTime": "2015-08-06T12:30:00.000+01:00",
        "periodAndTime": "29' 1st Half",
        "is4InRunning": "1",
        "isInRunningDelay": "1",
        "isVisible": "1",
        "sportId": "102",
        "inRunningData": {
          "addScoreA": "",
          "addScoreB": "",
          "addScoreText": "",
          "competitionName": "Football Injury Time",
          "displayTime": "2015-08-06T12:30:42.000+01:00",
          "periodStartTime": "2015-08-06T12:30:42.000+01:00",
          "publishAnticipatedStartTime": "1",
          "actualStartTime": "2015-08-06T12:30:42.000+01:00",
          "isInRunning": "1",
          "numberOfPeriods": "5",
          "participantA": "Courts Young Lions",
          "participantB": "Albirex Niigata FC",
          "periodLengthInMin": "45",
          "periodNumber": "1",
          "periodText": "1st Half",
          "scoreA": "0",
          "scoreB": "0",
          "scoreHistory": "",
          "scoreText": "Goals",
          "scores": {
            "participantAScoreHistory": [],
            "participantBScoreHistory": [],
            "scoreHistoryFormatted": null,
            "participantATotalSetScore": null,
            "participantBTotalSetScore": null,
            "totalSetScoreFormatted": null,
            "participantACurrentSetScore": null,
            "participantBCurrentSetScore": null,
            "currentSetScoreFormatted": null,
            "participantACurrentGameScore": "0",
            "participantBCurrentGameScore": "0",
            "currentGameScoreFormatted": "0-0",
            "fullScoreFormatted": "0-0"
          }
        },
        "streamingData": [
          {
            "audioLanguages": "",
            "description": "SOCCER: Young Lions v Albirex Niigata S",
            "extId": "28li0ehgngfqssasfu9zc2bxl",
            "extVenueId": "",
            "geoBlocked": "",
            "isChargeable": "0",
            "location": "",
            "providerId": "PERFORM",
            "stmPlatformType": "",
            "stmStatus": "",
            "stmTechnology": "",
            "streamingId": "28li0ehgngfqssasfu9zc2bxl",
            "type": "DATA"
          }
        ],
        "books": [
          {
            "id": 100437165,
            "name": "Match Prices",
            "category": "book",
            "marketTypeId": "8034",
            "marketType": {
              "id": 8034,
              "name": " Match Prices",
              "inrunningDelay": "",
              "webCouponTemplate": "CPNTEAMTIE",
              "webTemplate": "Team Competition",
              "cpWebCouponTemplate": ""
            },
            "market": {
              "id": 98281183,
              "name": "Match Prices",
              "description": null,
              "eachWayPlaceTerm": "",
              "eachWayReduction": "",
              "isEachWay": "0",
              "isVisible": "1"
            },
            "offers": [
              {
                "type": "S",
                "selections": [
                  {
                    "id": 380884118,
                    "name": "Courts Young Lions",
                    "category": "selection",
                    "handicap": "",
                    "handicapId": "",
                    "templateNumber": "1",
                    "price": {
                      "id": 2729498860,
                      "down": "1",
                      "euroOdds": "4.00",
                      "ukOdds": "3/1",
                      "notOfferedReason": "",
                      "isOffered": "1",
                      "ukValueDown": "1",
                      "ukValueUp": "3",
                      "up": "3",
                      "usOdds": "300",
                      "displayOdds": "3/1"
                    }
                  },
                  {
                    "id": 380884119,
                    "name": "Albirex Niigata FC",
                    "category": "selection",
                    "handicap": "",
                    "handicapId": "",
                    "templateNumber": "2",
                    "price": {
                      "id": 2729492880,
                      "down": "11",
                      "euroOdds": "1.909",
                      "ukOdds": "10/11",
                      "notOfferedReason": "",
                      "isOffered": "1",
                      "ukValueDown": "11",
                      "ukValueUp": "10",
                      "up": "10",
                      "usOdds": "-110",
                      "displayOdds": "10/11"
                    }
                  },
                  {
                    "id": 380884120,
                    "name": "Draw",
                    "category": "selection",
                    "handicap": "",
                    "handicapId": "",
                    "templateNumber": "0",
                    "price": {
                      "id": 2729497314,
                      "down": "20",
                      "euroOdds": "2.95",
                      "ukOdds": "39/20",
                      "notOfferedReason": "",
                      "isOffered": "1",
                      "ukValueDown": "20",
                      "ukValueUp": "39",
                      "up": "39",
                      "usOdds": "195",
                      "displayOdds": "39/20"
                    }
                  }
                ]
              }
            ]
          }
        ]
      },
      {
        "id": 4594884,
        "name": "Home United FC v Harimau Muda",
        "category": "event",
        "eventDateTime": "2015-08-06T12:30:00.000+01:00",
        "eventStartingTime": "2015-08-06T12:30:00.000+01:00",
        "periodAndTime": "29' 1st Half",
        "is4InRunning": "1",
        "isInRunningDelay": "1",
        "isVisible": "1",
        "sportId": "102",
        "inRunningData": {
          "addScoreA": "",
          "addScoreB": "",
          "addScoreText": "",
          "competitionName": "Football Injury Time",
          "displayTime": "2015-08-06T12:30:48.000+01:00",
          "periodStartTime": "2015-08-06T12:30:48.000+01:00",
          "publishAnticipatedStartTime": "1",
          "actualStartTime": "2015-08-06T12:30:48.000+01:00",
          "isInRunning": "1",
          "numberOfPeriods": "5",
          "participantA": "Home United FC",
          "participantB": "Harimau Muda",
          "periodLengthInMin": "45",
          "periodNumber": "1",
          "periodText": "1st Half",
          "scoreA": "3",
          "scoreB": "0",
          "scoreHistory": "",
          "scoreText": "Goals",
          "scores": {
            "participantAScoreHistory": [],
            "participantBScoreHistory": [],
            "scoreHistoryFormatted": null,
            "participantATotalSetScore": null,
            "participantBTotalSetScore": null,
            "totalSetScoreFormatted": null,
            "participantACurrentSetScore": null,
            "participantBCurrentSetScore": null,
            "currentSetScoreFormatted": null,
            "participantACurrentGameScore": "3",
            "participantBCurrentGameScore": "0",
            "currentGameScoreFormatted": "3-0",
            "fullScoreFormatted": "3-0"
          }
        },
        "streamingData": [
          {
            "audioLanguages": "",
            "description": "SOCCER: Home United v Harimau Muda",
            "extId": "28qjnplo74miykdqtvnpyo0yx",
            "extVenueId": "",
            "geoBlocked": "",
            "isChargeable": "0",
            "location": "",
            "providerId": "PERFORM",
            "stmPlatformType": "",
            "stmStatus": "",
            "stmTechnology": "",
            "streamingId": "28qjnplo74miykdqtvnpyo0yx",
            "type": "DATA"
          }
        ],
        "books": [
          {
            "id": 100437295,
            "name": "Over/Under 3.5 Goals",
            "category": "book",
            "marketTypeId": "8035",
            "marketType": {
              "id": 8035,
              "name": "Full Time Total Goals",
              "inrunningDelay": "",
              "webCouponTemplate": "CPNTOTALS",
              "webTemplate": "Team Competition",
              "cpWebCouponTemplate": ""
            },
            "market": {
              "id": 98281313,
              "name": "Over/Under 3.5 Goals",
              "description": null,
              "eachWayPlaceTerm": "",
              "eachWayReduction": "",
              "isEachWay": "0",
              "isVisible": "1"
            },
            "offers": [
              {
                "type": "H",
                "selections": [
                  {
                    "id": 380884658,
                    "name": "Over 3.5",
                    "category": "selection",
                    "handicap": "-3.5",
                    "handicapId": "134614382",
                    "templateNumber": "1",
                    "price": {
                      "id": 2729492131,
                      "down": "12",
                      "euroOdds": "1.083",
                      "ukOdds": "1/12",
                      "notOfferedReason": "",
                      "isOffered": "1",
                      "ukValueDown": "12",
                      "ukValueUp": "1",
                      "up": "1",
                      "usOdds": "-1200",
                      "displayOdds": "1/12"
                    }
                  },
                  {
                    "id": 380884659,
                    "name": "Under 3.5",
                    "category": "selection",
                    "handicap": "3.5",
                    "handicapId": "134614383",
                    "templateNumber": "2",
                    "price": {
                      "id": 2729492130,
                      "down": "1",
                      "euroOdds": "6.00",
                      "ukOdds": "5/1",
                      "notOfferedReason": "",
                      "isOffered": "1",
                      "ukValueDown": "1",
                      "ukValueUp": "5",
                      "up": "5",
                      "usOdds": "500",
                      "displayOdds": "5/1"
                    }
                  }
                ]
              }
            ]
          }
        ]
      },
      {
        "id": 4631249,
        "name": "Ahbab v City New Delhi",
        "category": "event",
        "eventDateTime": "2015-08-06T12:45:00.000+01:00",
        "eventStartingTime": "2015-08-06T12:45:00.000+01:00",
        "periodAndTime": "5' 1st Half",
        "is4InRunning": "1",
        "isInRunningDelay": "1",
        "isVisible": "1",
        "sportId": "102",
        "inRunningData": {
          "addScoreA": "",
          "addScoreB": "",
          "addScoreText": "",
          "competitionName": "80 mins football",
          "displayTime": "2015-08-06T12:54:35.000+01:00",
          "periodStartTime": "2015-08-06T12:54:35.000+01:00",
          "publishAnticipatedStartTime": "1",
          "actualStartTime": "2015-08-06T12:54:35.000+01:00",
          "isInRunning": "1",
          "numberOfPeriods": "5",
          "participantA": "Ahbab",
          "participantB": "City New Delhi",
          "periodLengthInMin": "40",
          "periodNumber": "1",
          "periodText": "1st Half",
          "scoreA": "0",
          "scoreB": "0",
          "scoreHistory": "",
          "scoreText": "Goals",
          "scores": {
            "participantAScoreHistory": [],
            "participantBScoreHistory": [],
            "scoreHistoryFormatted": null,
            "participantATotalSetScore": null,
            "participantBTotalSetScore": null,
            "totalSetScoreFormatted": null,
            "participantACurrentSetScore": null,
            "participantBCurrentSetScore": null,
            "currentSetScoreFormatted": null,
            "participantACurrentGameScore": "0",
            "participantBCurrentGameScore": "0",
            "currentGameScoreFormatted": "0-0",
            "fullScoreFormatted": "0-0"
          }
        },
        "streamingData": [
          {
            "audioLanguages": "",
            "description": "SOCCER: Ahbab v City FC New Delhi",
            "extId": "7f5fo0i698jp9ji8g4wm7qynd",
            "extVenueId": "",
            "geoBlocked": "",
            "isChargeable": "0",
            "location": "",
            "providerId": "PERFORM",
            "stmPlatformType": "",
            "stmStatus": "",
            "stmTechnology": "",
            "streamingId": "7f5fo0i698jp9ji8g4wm7qynd",
            "type": "DATA"
          }
        ],
        "books": [
          {
            "id": 101526748,
            "name": "Match Prices",
            "category": "book",
            "marketTypeId": "8034",
            "description": " 80 minutes",
            "marketType": {
              "id": 8034,
              "name": " Match Prices",
              "inrunningDelay": "",
              "webCouponTemplate": "CPNTEAMTIE",
              "webTemplate": "Team Competition",
              "cpWebCouponTemplate": ""
            },
            "market": {
              "id": 99369639,
              "name": "Match Prices",
              "description": null,
              "eachWayPlaceTerm": "",
              "eachWayReduction": "",
              "isEachWay": "0",
              "isVisible": "1"
            },
            "offers": [
              {
                "type": "S",
                "selections": [
                  {
                    "id": 384985866,
                    "name": "Ahbab",
                    "category": "selection",
                    "handicap": "",
                    "handicapId": "",
                    "templateNumber": "1",
                    "price": {
                      "id": 2729490390,
                      "down": "10",
                      "euroOdds": "2.90",
                      "ukOdds": "19/10",
                      "notOfferedReason": "",
                      "isOffered": "1",
                      "ukValueDown": "10",
                      "ukValueUp": "19",
                      "up": "19",
                      "usOdds": "190",
                      "displayOdds": "19/10"
                    }
                  },
                  {
                    "id": 384985867,
                    "name": "City New Delhi",
                    "category": "selection",
                    "handicap": "",
                    "handicapId": "",
                    "templateNumber": "2",
                    "price": {
                      "id": 2729498953,
                      "down": "10",
                      "euroOdds": "2.10",
                      "ukOdds": "11/10",
                      "notOfferedReason": "",
                      "isOffered": "1",
                      "ukValueDown": "10",
                      "ukValueUp": "11",
                      "up": "11",
                      "usOdds": "110",
                      "displayOdds": "11/10"
                    }
                  },
                  {
                    "id": 384985868,
                    "name": "Draw",
                    "category": "selection",
                    "handicap": "",
                    "handicapId": "",
                    "templateNumber": "0",
                    "price": {
                      "id": 2729498952,
                      "down": "4",
                      "euroOdds": "3.25",
                      "ukOdds": "9/4",
                      "notOfferedReason": "",
                      "isOffered": "1",
                      "ukValueDown": "4",
                      "ukValueUp": "9",
                      "up": "9",
                      "usOdds": "225",
                      "displayOdds": "9/4"
                    }
                  }
                ]
              }
            ]
          }
        ]
      },
      {
        "id": 4631261,
        "name": "Assumption United v Rangsit University",
        "category": "event",
        "eventDateTime": "2015-08-06T13:00:00.000+01:00",
        "eventStartingTime": "2015-08-06T13:00:00.000+01:00",
        "periodAndTime": "13:00 BST",
        "is4InRunning": "1",
        "isInRunningDelay": "1",
        "isVisible": "1",
        "sportId": "102",
        "inRunningData": {
          "addScoreA": "",
          "addScoreB": "",
          "addScoreText": "",
          "competitionName": "Football Injury Time",
          "displayTime": null,
          "periodStartTime": null,
          "publishAnticipatedStartTime": "1",
          "actualStartTime": null,
          "isInRunning": "0",
          "numberOfPeriods": "5",
          "participantA": "Assumption United",
          "participantB": "Rangsit University ",
          "periodLengthInMin": "",
          "periodNumber": "0",
          "periodText": "",
          "scoreA": "0",
          "scoreB": "0",
          "scoreHistory": "",
          "scoreText": "Goals"
        },
        "streamingData": [],
        "books": [
          {
            "id": 101527090,
            "name": "Match Prices",
            "category": "book",
            "marketTypeId": "118",
            "marketType": {
              "id": 118,
              "name": "Match Prices",
              "inrunningDelay": "5",
              "webCouponTemplate": "CPNTEAMTIE",
              "webTemplate": "Team Competition",
              "cpWebCouponTemplate": ""
            },
            "market": {
              "id": 99369981,
              "name": "Match Prices",
              "description": null,
              "eachWayPlaceTerm": "",
              "eachWayReduction": "",
              "isEachWay": "0",
              "isVisible": "1"
            },
            "offers": [
              {
                "type": "S",
                "selections": [
                  {
                    "id": 384987307,
                    "name": "Assumption United",
                    "category": "selection",
                    "handicap": "",
                    "handicapId": "",
                    "templateNumber": "1",
                    "price": {
                      "id": 2729108092,
                      "down": "2",
                      "euroOdds": "1.50",
                      "ukOdds": "1/2",
                      "notOfferedReason": "",
                      "isOffered": "1",
                      "ukValueDown": "2",
                      "ukValueUp": "1",
                      "up": "1",
                      "usOdds": "-200",
                      "displayOdds": "1/2"
                    }
                  },
                  {
                    "id": 384987308,
                    "name": "Rangsit University ",
                    "category": "selection",
                    "handicap": "",
                    "handicapId": "",
                    "templateNumber": "2",
                    "price": {
                      "id": 2729108093,
                      "down": "1",
                      "euroOdds": "5.00",
                      "ukOdds": "4/1",
                      "notOfferedReason": "",
                      "isOffered": "1",
                      "ukValueDown": "1",
                      "ukValueUp": "4",
                      "up": "4",
                      "usOdds": "400",
                      "displayOdds": "4/1"
                    }
                  },
                  {
                    "id": 384987309,
                    "name": "Draw",
                    "category": "selection",
                    "handicap": "",
                    "handicapId": "",
                    "templateNumber": "0",
                    "price": {
                      "id": 2729108094,
                      "down": "1",
                      "euroOdds": "4.00",
                      "ukOdds": "3/1",
                      "notOfferedReason": "",
                      "isOffered": "1",
                      "ukValueDown": "1",
                      "ukValueUp": "3",
                      "up": "3",
                      "usOdds": "300",
                      "displayOdds": "3/1"
                    }
                  }
                ]
              }
            ]
          }
        ]
      },
      {
        "id": 4625364,
        "name": "Borussia Monchengladbach U19 v 1. FC Kaiserslautern U19",
        "category": "event",
        "eventDateTime": "2015-08-06T13:00:00.000+01:00",
        "eventStartingTime": "2015-08-06T13:00:00.000+01:00",
        "periodAndTime": "13:00 BST",
        "is4InRunning": "1",
        "isInRunningDelay": "1",
        "isVisible": "0",
        "sportId": "102",
        "inRunningData": {
          "addScoreA": "",
          "addScoreB": "",
          "addScoreText": "",
          "competitionName": "Football Injury Time",
          "displayTime": null,
          "periodStartTime": null,
          "publishAnticipatedStartTime": "1",
          "actualStartTime": null,
          "isInRunning": "0",
          "numberOfPeriods": "5",
          "participantA": "Borussia Monchengladbach U19",
          "participantB": "1. FC Kaiserslautern U19",
          "periodLengthInMin": "",
          "periodNumber": "0",
          "periodText": "",
          "scoreA": "0",
          "scoreB": "0",
          "scoreHistory": "",
          "scoreText": "Goals"
        },
        "streamingData": [],
        "books": [
          {
            "id": 101358559,
            "name": "Match Prices",
            "category": "book",
            "marketTypeId": "8034",
            "marketType": {
              "id": 8034,
              "name": " Match Prices",
              "inrunningDelay": "",
              "webCouponTemplate": "CPNTEAMTIE",
              "webTemplate": "Team Competition",
              "cpWebCouponTemplate": ""
            },
            "market": {
              "id": 99202147,
              "name": "Match Prices",
              "description": null,
              "eachWayPlaceTerm": "",
              "eachWayReduction": "",
              "isEachWay": "0",
              "isVisible": "1"
            },
            "offers": [
              {
                "type": "S",
                "selections": [
                  {
                    "id": 384354079,
                    "name": "Borussia Monchengladbach U19",
                    "category": "selection",
                    "handicap": "",
                    "handicapId": "",
                    "templateNumber": "1",
                    "price": {
                      "id": 2729495748,
                      "down": "7",
                      "euroOdds": "1.571",
                      "ukOdds": "4/7",
                      "notOfferedReason": "",
                      "isOffered": "1",
                      "ukValueDown": "7",
                      "ukValueUp": "4",
                      "up": "4",
                      "usOdds": "-175",
                      "displayOdds": "4/7"
                    }
                  },
                  {
                    "id": 384354080,
                    "name": "1. FC Kaiserslautern U19",
                    "category": "selection",
                    "handicap": "",
                    "handicapId": "",
                    "templateNumber": "2",
                    "price": {
                      "id": 2729495750,
                      "down": "2",
                      "euroOdds": "4.50",
                      "ukOdds": "7/2",
                      "notOfferedReason": "",
                      "isOffered": "1",
                      "ukValueDown": "2",
                      "ukValueUp": "7",
                      "up": "7",
                      "usOdds": "350",
                      "displayOdds": "7/2"
                    }
                  },
                  {
                    "id": 384354081,
                    "name": "Draw",
                    "category": "selection",
                    "handicap": "",
                    "handicapId": "",
                    "templateNumber": "0",
                    "price": {
                      "id": 2729495749,
                      "down": "1",
                      "euroOdds": "4.00",
                      "ukOdds": "3/1",
                      "notOfferedReason": "",
                      "isOffered": "1",
                      "ukValueDown": "1",
                      "ukValueUp": "3",
                      "up": "3",
                      "usOdds": "300",
                      "displayOdds": "3/1"
                    }
                  }
                ]
              }
            ]
          }
        ]
      },
      {
        "id": 4631237,
        "name": "Padideh FC v Foolad Khuzestan",
        "category": "event",
        "eventDateTime": "2015-08-06T14:30:00.000+01:00",
        "eventStartingTime": "2015-08-06T14:30:00.000+01:00",
        "periodAndTime": "14:30 BST",
        "is4InRunning": "1",
        "isInRunningDelay": "1",
        "isVisible": "1",
        "sportId": "102",
        "inRunningData": {
          "addScoreA": "",
          "addScoreB": "",
          "addScoreText": "",
          "competitionName": "Football Injury Time",
          "displayTime": null,
          "periodStartTime": null,
          "publishAnticipatedStartTime": "1",
          "actualStartTime": null,
          "isInRunning": "0",
          "numberOfPeriods": "5",
          "participantA": "Padideh FC",
          "participantB": "Foolad Khuzestan",
          "periodLengthInMin": "",
          "periodNumber": "0",
          "periodText": "",
          "scoreA": "0",
          "scoreB": "0",
          "scoreHistory": "",
          "scoreText": "Goals"
        },
        "streamingData": [],
        "books": [
          {
            "id": 101525873,
            "name": "Match Prices",
            "category": "book",
            "marketTypeId": "118",
            "marketType": {
              "id": 118,
              "name": "Match Prices",
              "inrunningDelay": "5",
              "webCouponTemplate": "CPNTEAMTIE",
              "webTemplate": "Team Competition",
              "cpWebCouponTemplate": ""
            },
            "market": {
              "id": 99368764,
              "name": "Match Prices",
              "description": null,
              "eachWayPlaceTerm": "",
              "eachWayReduction": "",
              "isEachWay": "0",
              "isVisible": "1"
            },
            "offers": [
              {
                "type": "S",
                "selections": [
                  {
                    "id": 384982679,
                    "name": "Padideh FC",
                    "category": "selection",
                    "handicap": "",
                    "handicapId": "",
                    "templateNumber": "1",
                    "price": {
                      "id": 2728995336,
                      "down": "4",
                      "euroOdds": "2.50",
                      "ukOdds": "6/4",
                      "notOfferedReason": "",
                      "isOffered": "1",
                      "ukValueDown": "4",
                      "ukValueUp": "6",
                      "up": "6",
                      "usOdds": "150",
                      "displayOdds": "6/4"
                    }
                  },
                  {
                    "id": 384982680,
                    "name": "Foolad Khuzestan",
                    "category": "selection",
                    "handicap": "",
                    "handicapId": "",
                    "templateNumber": "2",
                    "price": {
                      "id": 2728995338,
                      "down": "4",
                      "euroOdds": "2.75",
                      "ukOdds": "7/4",
                      "notOfferedReason": "",
                      "isOffered": "1",
                      "ukValueDown": "4",
                      "ukValueUp": "7",
                      "up": "7",
                      "usOdds": "175",
                      "displayOdds": "7/4"
                    }
                  },
                  {
                    "id": 384982681,
                    "name": "Draw",
                    "category": "selection",
                    "handicap": "",
                    "handicapId": "",
                    "templateNumber": "0",
                    "price": {
                      "id": 2728995337,
                      "down": "5",
                      "euroOdds": "2.80",
                      "ukOdds": "9/5",
                      "notOfferedReason": "",
                      "isOffered": "1",
                      "ukValueDown": "5",
                      "ukValueUp": "9",
                      "up": "9",
                      "usOdds": "180",
                      "displayOdds": "9/5"
                    }
                  }
                ]
              }
            ]
          }
        ]
      },
      {
        "id": 4631241,
        "name": "Rah Ahan v Saipa",
        "category": "event",
        "eventDateTime": "2015-08-06T15:00:00.000+01:00",
        "eventStartingTime": "2015-08-06T15:00:00.000+01:00",
        "periodAndTime": "15:00 BST",
        "is4InRunning": "1",
        "isInRunningDelay": "1",
        "isVisible": "1",
        "sportId": "102",
        "inRunningData": {
          "addScoreA": "",
          "addScoreB": "",
          "addScoreText": "",
          "competitionName": "Football Injury Time",
          "displayTime": null,
          "periodStartTime": null,
          "publishAnticipatedStartTime": "1",
          "actualStartTime": null,
          "isInRunning": "0",
          "numberOfPeriods": "5",
          "participantA": "Rah Ahan",
          "participantB": "Saipa",
          "periodLengthInMin": "",
          "periodNumber": "0",
          "periodText": "",
          "scoreA": "0",
          "scoreB": "0",
          "scoreHistory": "",
          "scoreText": "Goals"
        },
        "streamingData": [],
        "books": [
          {
            "id": 101526080,
            "name": "Match Prices",
            "category": "book",
            "marketTypeId": "118",
            "marketType": {
              "id": 118,
              "name": "Match Prices",
              "inrunningDelay": "5",
              "webCouponTemplate": "CPNTEAMTIE",
              "webTemplate": "Team Competition",
              "cpWebCouponTemplate": ""
            },
            "market": {
              "id": 99368971,
              "name": "Match Prices",
              "description": null,
              "eachWayPlaceTerm": "",
              "eachWayReduction": "",
              "isEachWay": "0",
              "isVisible": "1"
            },
            "offers": [
              {
                "type": "S",
                "selections": [
                  {
                    "id": 384983302,
                    "name": "Rah Ahan",
                    "category": "selection",
                    "handicap": "",
                    "handicapId": "",
                    "templateNumber": "1",
                    "price": {
                      "id": 2728998248,
                      "down": "10",
                      "euroOdds": "2.30",
                      "ukOdds": "13/10",
                      "notOfferedReason": "",
                      "isOffered": "1",
                      "ukValueDown": "10",
                      "ukValueUp": "13",
                      "up": "13",
                      "usOdds": "130",
                      "displayOdds": "13/10"
                    }
                  },
                  {
                    "id": 384983303,
                    "name": "Saipa",
                    "category": "selection",
                    "handicap": "",
                    "handicapId": "",
                    "templateNumber": "2",
                    "price": {
                      "id": 2728998247,
                      "down": "20",
                      "euroOdds": "2.85",
                      "ukOdds": "37/20",
                      "notOfferedReason": "",
                      "isOffered": "1",
                      "ukValueDown": "20",
                      "ukValueUp": "37",
                      "up": "37",
                      "usOdds": "185",
                      "displayOdds": "37/20"
                    }
                  },
                  {
                    "id": 384983304,
                    "name": "Draw",
                    "category": "selection",
                    "handicap": "",
                    "handicapId": "",
                    "templateNumber": "0",
                    "price": {
                      "id": 2728998246,
                      "down": "1",
                      "euroOdds": "3.00",
                      "ukOdds": "2/1",
                      "notOfferedReason": "",
                      "isOffered": "1",
                      "ukValueDown": "1",
                      "ukValueUp": "2",
                      "up": "2",
                      "usOdds": "200",
                      "displayOdds": "2/1"
                    }
                  }
                ]
              }
            ]
          }
        ]
      },
      {
        "id": 4625323,
        "name": "Terek Grozny U21 v FK Mordovya Saransk U21",
        "category": "event",
        "eventDateTime": "2015-08-06T15:00:00.000+01:00",
        "eventStartingTime": "2015-08-06T15:00:00.000+01:00",
        "periodAndTime": "15:00 BST",
        "is4InRunning": "1",
        "isInRunningDelay": "1",
        "isVisible": "1",
        "sportId": "102",
        "inRunningData": {
          "addScoreA": "",
          "addScoreB": "",
          "addScoreText": "",
          "competitionName": "Football Injury Time",
          "displayTime": null,
          "periodStartTime": null,
          "publishAnticipatedStartTime": "1",
          "actualStartTime": null,
          "isInRunning": "0",
          "numberOfPeriods": "5",
          "participantA": "Terek Grozny U21",
          "participantB": "FK Mordovya Saransk U21",
          "periodLengthInMin": "",
          "periodNumber": "0",
          "periodText": "",
          "scoreA": "0",
          "scoreB": "0",
          "scoreHistory": "",
          "scoreText": "Goals"
        },
        "streamingData": [
          {
            "audioLanguages": "",
            "description": "SOCCER: Terek Grozny U21 v Mordovia Saransk U21",
            "extId": "2629zvk40q91qk3nslb1921gp",
            "extVenueId": "",
            "geoBlocked": "",
            "isChargeable": "0",
            "location": "",
            "providerId": "PERFORM",
            "stmPlatformType": "",
            "stmStatus": "",
            "stmTechnology": "",
            "streamingId": "2629zvk40q91qk3nslb1921gp",
            "type": "DATA"
          }
        ],
        "books": [
          {
            "id": 101356479,
            "name": "Match Prices",
            "category": "book",
            "marketTypeId": "8034",
            "marketType": {
              "id": 8034,
              "name": " Match Prices",
              "inrunningDelay": "",
              "webCouponTemplate": "CPNTEAMTIE",
              "webTemplate": "Team Competition",
              "cpWebCouponTemplate": ""
            },
            "market": {
              "id": 99200097,
              "name": "Match Prices",
              "description": null,
              "eachWayPlaceTerm": "",
              "eachWayReduction": "",
              "isEachWay": "0",
              "isVisible": "1"
            },
            "offers": [
              {
                "type": "S",
                "selections": [
                  {
                    "id": 384346949,
                    "name": "Terek Grozny U21",
                    "category": "selection",
                    "handicap": "",
                    "handicapId": "",
                    "templateNumber": "1",
                    "price": {
                      "id": 2729362901,
                      "down": "4",
                      "euroOdds": "2.75",
                      "ukOdds": "7/4",
                      "notOfferedReason": "",
                      "isOffered": "1",
                      "ukValueDown": "4",
                      "ukValueUp": "7",
                      "up": "7",
                      "usOdds": "175",
                      "displayOdds": "7/4"
                    }
                  },
                  {
                    "id": 384346950,
                    "name": "FK Mordovya Saransk U21",
                    "category": "selection",
                    "handicap": "",
                    "handicapId": "",
                    "templateNumber": "2",
                    "price": {
                      "id": 2728996226,
                      "down": "20",
                      "euroOdds": "2.15",
                      "ukOdds": "23/20",
                      "notOfferedReason": "",
                      "isOffered": "1",
                      "ukValueDown": "20",
                      "ukValueUp": "23",
                      "up": "23",
                      "usOdds": "115",
                      "displayOdds": "23/20"
                    }
                  },
                  {
                    "id": 384346951,
                    "name": "Draw",
                    "category": "selection",
                    "handicap": "",
                    "handicapId": "",
                    "templateNumber": "0",
                    "price": {
                      "id": 2729352001,
                      "down": "10",
                      "euroOdds": "3.30",
                      "ukOdds": "23/10",
                      "notOfferedReason": "",
                      "isOffered": "1",
                      "ukValueDown": "10",
                      "ukValueUp": "23",
                      "up": "23",
                      "usOdds": "230",
                      "displayOdds": "23/10"
                    }
                  }
                ]
              }
            ]
          }
        ]
      },
      {
        "id": 4625333,
        "name": "Volyn Lutsk U21 v Metalist Kharkiv U21",
        "category": "event",
        "eventDateTime": "2015-08-06T15:00:00.000+01:00",
        "eventStartingTime": "2015-08-06T15:00:00.000+01:00",
        "periodAndTime": "15:00 BST",
        "is4InRunning": "1",
        "isInRunningDelay": "1",
        "isVisible": "1",
        "sportId": "102",
        "inRunningData": {
          "addScoreA": "",
          "addScoreB": "",
          "addScoreText": "",
          "competitionName": "Football Injury Time",
          "displayTime": null,
          "periodStartTime": null,
          "publishAnticipatedStartTime": "1",
          "actualStartTime": null,
          "isInRunning": "0",
          "numberOfPeriods": "5",
          "participantA": "Volyn Lutsk U21",
          "participantB": "Metalist Kharkiv U21",
          "periodLengthInMin": "",
          "periodNumber": "0",
          "periodText": "",
          "scoreA": "0",
          "scoreB": "0",
          "scoreHistory": "",
          "scoreText": "Goals"
        },
        "streamingData": [
          {
            "audioLanguages": "",
            "description": "SOCCER: Volyn Lutsk U21 v Metalist Kharkiv U21",
            "extId": "9hobey90okxzuat42bq15esix",
            "extVenueId": "",
            "geoBlocked": "",
            "isChargeable": "0",
            "location": "",
            "providerId": "PERFORM",
            "stmPlatformType": "",
            "stmStatus": "",
            "stmTechnology": "",
            "streamingId": "9hobey90okxzuat42bq15esix",
            "type": "DATA"
          }
        ],
        "books": [
          {
            "id": 101357932,
            "name": "Match Prices",
            "category": "book",
            "marketTypeId": "8034",
            "marketType": {
              "id": 8034,
              "name": " Match Prices",
              "inrunningDelay": "",
              "webCouponTemplate": "CPNTEAMTIE",
              "webTemplate": "Team Competition",
              "cpWebCouponTemplate": ""
            },
            "market": {
              "id": 99201550,
              "name": "Match Prices",
              "description": null,
              "eachWayPlaceTerm": "",
              "eachWayReduction": "",
              "isEachWay": "0",
              "isVisible": "1"
            },
            "offers": [
              {
                "type": "S",
                "selections": [
                  {
                    "id": 384351696,
                    "name": "Volyn Lutsk U21",
                    "category": "selection",
                    "handicap": "",
                    "handicapId": "",
                    "templateNumber": "1",
                    "price": {
                      "id": 2729355235,
                      "down": "20",
                      "euroOdds": "2.35",
                      "ukOdds": "27/20",
                      "notOfferedReason": "",
                      "isOffered": "1",
                      "ukValueDown": "20",
                      "ukValueUp": "27",
                      "up": "27",
                      "usOdds": "135",
                      "displayOdds": "27/20"
                    }
                  },
                  {
                    "id": 384351697,
                    "name": "Metalist Kharkiv U21",
                    "category": "selection",
                    "handicap": "",
                    "handicapId": "",
                    "templateNumber": "2",
                    "price": {
                      "id": 2729355238,
                      "down": "20",
                      "euroOdds": "2.55",
                      "ukOdds": "31/20",
                      "notOfferedReason": "",
                      "isOffered": "1",
                      "ukValueDown": "20",
                      "ukValueUp": "31",
                      "up": "31",
                      "usOdds": "155",
                      "displayOdds": "31/20"
                    }
                  },
                  {
                    "id": 384351698,
                    "name": "Draw",
                    "category": "selection",
                    "handicap": "",
                    "handicapId": "",
                    "templateNumber": "0",
                    "price": {
                      "id": 2729354455,
                      "down": "10",
                      "euroOdds": "3.30",
                      "ukOdds": "23/10",
                      "notOfferedReason": "",
                      "isOffered": "1",
                      "ukValueDown": "10",
                      "ukValueUp": "23",
                      "up": "23",
                      "usOdds": "230",
                      "displayOdds": "23/10"
                    }
                  }
                ]
              }
            ]
          }
        ]
      },
      {
        "id": 4613050,
        "name": "FK Utenis Utena v Suduva",
        "category": "event",
        "eventDateTime": "2015-08-06T15:30:00.000+01:00",
        "eventStartingTime": "2015-08-06T15:30:00.000+01:00",
        "periodAndTime": "15:30 BST",
        "is4InRunning": "1",
        "isInRunningDelay": "1",
        "isVisible": "1",
        "sportId": "102",
        "inRunningData": {
          "addScoreA": "",
          "addScoreB": "",
          "addScoreText": "",
          "competitionName": "Football Injury Time",
          "displayTime": null,
          "periodStartTime": null,
          "publishAnticipatedStartTime": "1",
          "actualStartTime": null,
          "isInRunning": "0",
          "numberOfPeriods": "5",
          "participantA": "FK Utenis Utena",
          "participantB": "Suduva",
          "periodLengthInMin": "",
          "periodNumber": "0",
          "periodText": "",
          "scoreA": "0",
          "scoreB": "0",
          "scoreHistory": "",
          "scoreText": "Goals"
        },
        "streamingData": [
          {
            "audioLanguages": "",
            "description": "SOCCER: Utenis Utena v Sūduva",
            "extId": "3o9j0202bl4731e0j55f4006h",
            "extVenueId": "",
            "geoBlocked": "",
            "isChargeable": "0",
            "location": "",
            "providerId": "PERFORM",
            "stmPlatformType": "",
            "stmStatus": "",
            "stmTechnology": "",
            "streamingId": "3o9j0202bl4731e0j55f4006h",
            "type": "DATA"
          }
        ],
        "books": [
          {
            "id": 100957470,
            "name": "Match Prices",
            "category": "book",
            "marketTypeId": "8034",
            "marketType": {
              "id": 8034,
              "name": " Match Prices",
              "inrunningDelay": "",
              "webCouponTemplate": "CPNTEAMTIE",
              "webTemplate": "Team Competition",
              "cpWebCouponTemplate": ""
            },
            "market": {
              "id": 98801135,
              "name": "Match Prices",
              "description": null,
              "eachWayPlaceTerm": "",
              "eachWayReduction": "",
              "isEachWay": "0",
              "isVisible": "1"
            },
            "offers": [
              {
                "type": "S",
                "selections": [
                  {
                    "id": 382843698,
                    "name": "FK Utenis Utena",
                    "category": "selection",
                    "handicap": "",
                    "handicapId": "",
                    "templateNumber": "1",
                    "price": {
                      "id": 2729286247,
                      "down": "5",
                      "euroOdds": "4.20",
                      "ukOdds": "16/5",
                      "notOfferedReason": "",
                      "isOffered": "1",
                      "ukValueDown": "5",
                      "ukValueUp": "16",
                      "up": "16",
                      "usOdds": "320",
                      "displayOdds": "16/5"
                    }
                  },
                  {
                    "id": 382843699,
                    "name": "Suduva",
                    "category": "selection",
                    "handicap": "",
                    "handicapId": "",
                    "templateNumber": "2",
                    "price": {
                      "id": 2729286248,
                      "down": "20",
                      "euroOdds": "1.65",
                      "ukOdds": "13/20",
                      "notOfferedReason": "",
                      "isOffered": "1",
                      "ukValueDown": "20",
                      "ukValueUp": "13",
                      "up": "13",
                      "usOdds": "-154",
                      "displayOdds": "13/20"
                    }
                  },
                  {
                    "id": 382843700,
                    "name": "Draw",
                    "category": "selection",
                    "handicap": "",
                    "handicapId": "",
                    "templateNumber": "0",
                    "price": {
                      "id": 2728999296,
                      "down": "5",
                      "euroOdds": "3.60",
                      "ukOdds": "13/5",
                      "notOfferedReason": "",
                      "isOffered": "1",
                      "ukValueDown": "5",
                      "ukValueUp": "13",
                      "up": "13",
                      "usOdds": "260",
                      "displayOdds": "13/5"
                    }
                  }
                ]
              }
            ]
          }
        ]
      }
    ]
  }
}
